<?xml version="1.0" encoding="utf-8"?>
<!-- Generator: Adobe Illustrator 16.0.0, SVG Export Plug-In . SVG Version: 6.00 Build 0)  -->
<!DOCTYPE svg PUBLIC "-//W3C//DTD SVG 1.1//EN" "http://www.w3.org/Graphics/SVG/1.1/DTD/svg11.dtd">
<svg version="1.1" id="Capa_1" xmlns="http://www.w3.org/2000/svg" xmlns:xlink="http://www.w3.org/1999/xlink" x="0px" y="0px"
	 width="237.326px" height="250.055px" viewBox="0 0 237.326 250.055" enable-background="new 0 0 237.326 250.055"
	 xml:space="preserve">
<g>
	<defs>
		<rect id="SVGID_1_" width="237.326" height="250.055"/>
	</defs>
	<clipPath id="SVGID_2_">
		<use xlink:href="#SVGID_1_"  overflow="visible"/>
	</clipPath>
	<path clip-path="url(#SVGID_2_)" fill="#66737F" d="M58.284,250.054c-0.734,0-1.444-0.268-1.994-0.758L1.006,200.103
		c-0.595-0.528-0.955-1.272-1.001-2.066s0.224-1.574,0.753-2.169l18.615-20.917c1.102-1.238,2.999-1.349,4.235-0.247l55.282,49.191
		c1.239,1.103,1.349,2.997,0.247,4.237l-18.613,20.917c-0.529,0.595-1.272,0.955-2.066,1.001
		C58.399,250.053,58.34,250.054,58.284,250.054 M7.235,197.616l50.801,45.203l14.625-16.435l-50.8-45.205L7.235,197.616z"/>
	<path clip-path="url(#SVGID_2_)" fill="#66737F" d="M34.373,175.821c-0.412,0-0.83-0.086-1.229-0.267
		c-1.511-0.679-2.185-2.456-1.504-3.966l27.212-60.429c0.083-0.183,0.183-0.357,0.301-0.52c0.195-0.271,4.856-6.639,11.648-6.639
		c1.265,0,5.363-0.194,10.551-0.44c28.84-1.366,45.152-1.823,48.748-0.331l28.517,11.83l-2.299,5.542l-28.518-11.83
		c-3.655-1.23-33.443,0.18-46.164,0.782C76.163,109.813,72.209,110,70.801,110c-2.891,0-5.606,2.661-6.618,3.936L37.11,174.05
		C36.61,175.163,35.518,175.821,34.373,175.821"/>
	<path clip-path="url(#SVGID_2_)" fill="#66737F" d="M74.622,220.262c-1.395,0-2.645-0.977-2.936-2.396
		c-0.333-1.624,0.712-3.208,2.335-3.541c8.909-1.831,24.384-5.662,27.987-8.15l44.171-30.504c2.955-2.821,6.029-5.575,9.005-8.24
		c3.687-3.303,7.501-6.719,11.049-10.235c0.504-0.5,1.044-1.011,1.598-1.534c2.104-1.987,4.487-4.239,5.199-6.449
		c0.921-2.862,0.953-6.667,0.078-9.249c-0.803-2.364-5.029-2.366-8.431-1.951c-4.49,0.547-6.387,2.45-9.828,5.908
		c-0.391,0.393-0.792,0.796-1.211,1.209c-2.796,2.769-5.664,5.287-8.528,7.491c-8.536,6.567-16.403,10.081-24.05,10.746
		c-12.978,1.126-19.576-5.392-26.553-12.296c-4.265-4.221-8.674-8.583-15.078-11.876c-1.474-0.758-2.054-2.567-1.296-4.04
		c0.758-1.473,2.564-2.053,4.04-1.296c7.223,3.716,12.18,8.62,16.553,12.945c6.732,6.658,11.595,11.472,21.815,10.584
		c6.471-0.562,13.311-3.676,20.911-9.523c2.666-2.051,5.346-4.407,7.965-6.998c0.408-0.404,0.8-0.797,1.179-1.178
		c3.651-3.668,6.805-6.835,13.356-7.634c8.166-0.992,13.155,1.02,14.838,5.981c1.29,3.806,1.271,8.913-0.049,13.013
		c-1.182,3.68-4.162,6.492-6.791,8.977c-0.516,0.487-1.021,0.962-1.492,1.428c-3.657,3.627-7.527,7.094-11.271,10.447
		c-2.996,2.683-6.095,5.459-9.031,8.27c-0.115,0.113-0.239,0.212-0.37,0.305l-44.367,30.639c-5.787,3.996-27.709,8.579-30.19,9.087
		C75.025,220.242,74.822,220.262,74.622,220.262"/>
	<path clip-path="url(#SVGID_2_)" fill="#66737F" d="M100.465,151.025c-0.516,0-1.038-0.133-1.516-0.413
		c-1.428-0.838-1.907-2.676-1.069-4.105c1.56-2.657,1.883-6.293,0.846-9.49c-0.895-2.755-2.716-4.853-5.128-5.91
		c-1.518-0.664-2.21-2.434-1.545-3.95c0.665-1.518,2.432-2.21,3.951-1.545c4.005,1.753,6.998,5.146,8.429,9.555
		c1.574,4.851,1.058,10.225-1.377,14.379C102.497,150.496,101.494,151.025,100.465,151.025"/>
	<path clip-path="url(#SVGID_2_)" fill="#66737F" d="M148.427,143.691c-3.633,0-6.992-1.62-9.959-3.054
		c-1.099-0.529-2.136-1.031-3.13-1.427c-2.801-1.12-5.754-2.437-8.648-4.461c-6.394,4.184-15.381,8.32-25.103,4.019
		c-1.515-0.67-2.2-2.44-1.529-3.957c0.669-1.516,2.44-2.199,3.957-1.528c6.181,2.735,12.475,1.336,21.045-4.681
		c1.102-0.771,2.584-0.718,3.625,0.137c2.829,2.318,5.939,3.725,8.88,4.898c1.188,0.476,2.369,1.045,3.513,1.599
		c2.502,1.208,5.089,2.456,7.35,2.456h0.041c1.651,0,2.992,1.335,3,2.986c0.008,1.658-1.33,3.005-2.986,3.013H148.427z"/>
	<path clip-path="url(#SVGID_2_)" fill="#66737F" d="M115.471,160.025c-1.025,0-2.023-0.524-2.584-1.473
		c-0.845-1.424-0.373-3.265,1.053-4.107c5.513-3.268,8.835-12.783,8.861-20.097c0.006-1.653,1.348-2.99,3-2.99h0.011
		c1.656,0.007,2.995,1.354,2.989,3.011c-0.025,7.35-3.19,20.136-11.805,25.237C116.517,159.89,115.991,160.025,115.471,160.025"/>
	<path clip-path="url(#SVGID_2_)" fill="#66737F" d="M178.802,140.358c-0.816,0-1.631-0.331-2.223-0.983
		c-1.113-1.229-1.021-3.125,0.206-4.239c1.011-0.916,2.161-2.33,1.9-3.864c-0.263-1.548-1.902-3.099-4.387-4.149
		c-1.526-0.646-2.239-2.407-1.594-3.932c0.646-1.527,2.411-2.239,3.932-1.594c4.445,1.882,7.349,5.042,7.964,8.672
		c0.558,3.286-0.786,6.595-3.784,9.314C180.242,140.101,179.521,140.358,178.802,140.358"/>
	<path clip-path="url(#SVGID_2_)" fill="#66737F" d="M157.31,135.691c-0.308,0-0.621-0.048-0.929-0.146
		c-1.576-0.514-2.438-2.207-1.925-3.782c0.02-0.061,0.04-0.121,0.058-0.177c-0.086-0.475-0.058-0.976,0.104-1.463l21-63.854
		c0.505-1.537,2.139-2.394,3.689-1.943l14.668,4.284c0.776,0.227,1.428,0.757,1.808,1.471c0.381,0.714,0.455,1.551,0.21,2.321
		c-0.058,0.18-5.898,18.436-19.808,58.902c-0.539,1.567-2.242,2.403-3.813,1.862c-1.566-0.539-2.4-2.245-1.861-3.813
		c10.749-31.271,16.667-49.244,18.819-55.849l-8.92-2.605l-19.492,59.267c0.015,1.079-0.383,2.304-0.757,3.453
		C159.749,134.885,158.573,135.691,157.31,135.691"/>
	<path clip-path="url(#SVGID_2_)" fill="#66737F" d="M143.468,220.262c-0.316,0-0.64-0.051-0.957-0.155l-12.667-4.266
		c-0.771-0.26-1.406-0.821-1.755-1.559c-0.349-0.738-0.382-1.584-0.094-2.346c0.021-0.058,2.157-5.708,6.189-18.101
		c0.513-1.576,2.209-2.437,3.781-1.925c1.575,0.513,2.438,2.205,1.924,3.783c-2.458,7.551-4.201,12.584-5.219,15.441l6.929,2.331
		l13.116-38.158c0.539-1.567,2.242-2.401,3.813-1.86c1.565,0.536,2.399,2.243,1.86,3.809l-14.085,40.979
		C145.878,219.482,144.714,220.262,143.468,220.262"/>
	<path clip-path="url(#SVGID_2_)" fill="#66737F" d="M188.549,67.525c-0.66,0-1.325-0.217-1.88-0.664
		c-1.111-0.895-1.417-2.421-0.815-3.651c0.256-1.335,1.399-2.37,2.816-2.432c1.638-0.06,3.056,1.211,3.128,2.866
		c0.044,1.012-0.27,1.968-0.91,2.763C190.295,67.144,189.426,67.525,188.549,67.525"/>
	<path clip-path="url(#SVGID_2_)" fill="#66737F" d="M193.471,67.047c-1.509,0-2.809-1.136-2.978-2.671
		c-0.183-1.647,1.006-3.13,2.652-3.311c2.545-0.281,5.57-4.365,6.263-7.512c1.001-4.555,0.225-9.505-2.443-15.574
		c-0.635-1.445-1.345-2.845-2.097-4.297c-0.549,1.384-1.327,2.663-2.333,3.815c-0.782,0.897-1.594,1.755-2.377,2.585
		c-2.474,2.616-4.81,5.088-5.802,8.291c-1.174,3.791,0.025,9.126,1.735,12.732c0.71,1.497,0.071,3.286-1.426,3.996
		c-1.496,0.712-3.285,0.071-3.996-1.426c-2.145-4.523-3.807-11.385-2.044-17.078c1.405-4.535,4.336-7.636,7.17-10.636
		c0.779-0.824,1.515-1.602,2.219-2.409c2.646-3.031,1.938-7.131,0.878-10.037c-0.567-1.556,0.233-3.279,1.79-3.846
		c1.554-0.565,3.278,0.233,3.847,1.79c0,0.001,0.002,0.003,0.003,0.005c0.223,0.608,0.954,1.582,1.601,2.442
		c0.767,1.021,1.561,2.077,2.125,3.228c0.499,1.019,1.023,2.025,1.545,3.03c0.901,1.736,1.834,3.53,2.655,5.401
		c3.205,7.291,4.099,13.417,2.81,19.277c-0.993,4.514-5.323,11.509-11.464,12.186C193.692,67.042,193.581,67.047,193.471,67.047"/>
	<path clip-path="url(#SVGID_2_)" fill="#66737F" d="M198.626,90.945c-1.439,0-2.711-1.041-2.955-2.508
		c-0.272-1.635,0.832-3.18,2.467-3.452c12.262-2.039,23.011-9.872,28.755-20.953c0.761-1.47,2.572-2.045,4.044-1.283
		c1.47,0.762,2.044,2.572,1.281,4.044c-6.607,12.75-18.979,21.763-33.096,24.111C198.955,90.931,198.79,90.945,198.626,90.945"/>
	<path clip-path="url(#SVGID_2_)" fill="#66737F" d="M234.268,51.075c-0.055,0-0.107-0.001-0.163-0.004
		c-1.655-0.089-2.924-1.502-2.836-3.157c0.038-0.712,0.059-1.429,0.059-2.151c0-1.324-0.066-2.66-0.196-3.972
		c-0.163-1.648,1.041-3.117,2.69-3.28c1.633-0.158,3.117,1.041,3.28,2.69c0.149,1.507,0.226,3.042,0.226,4.562
		c0,0.829-0.022,1.654-0.066,2.473C237.175,49.835,235.851,51.075,234.268,51.075"/>
	<path clip-path="url(#SVGID_2_)" fill="#66737F" d="M163.669,81.178c-0.692,0-1.391-0.239-1.957-0.727
		c-10.11-8.711-15.911-21.354-15.911-34.688C145.801,20.53,166.33,0,191.564,0c18.665,0,35.294,11.161,42.366,28.433
		c0.629,1.534-0.106,3.286-1.64,3.913c-1.532,0.629-3.285-0.106-3.913-1.639C222.232,15.698,207.782,6,191.564,6
		c-21.926,0-39.764,17.838-39.764,39.763c0,11.586,5.04,22.573,13.827,30.142c1.255,1.082,1.396,2.976,0.315,4.231
		C165.35,80.824,164.512,81.178,163.669,81.178"/>
	<path clip-path="url(#SVGID_2_)" fill="#66737F" d="M189.979,59.648c-0.344,0-0.689-0.057-1.027-0.175
		c-1.173-0.409-1.969-1.438-2.129-2.752c-0.198-1.645,0.972-3.14,2.617-3.34c0.177-0.022,0.355-0.026,0.525-0.018
		c1.35-0.061,2.577,0.734,3.015,2.045c0.387,1.159,0.073,2.465-0.8,3.327C191.575,59.331,190.786,59.648,189.979,59.648"/>
</g>
</svg>
