<svg id="Capa_1" data-name="Capa 1" xmlns="http://www.w3.org/2000/svg" viewBox="0 0 197.4 44">
  <defs>
    <style>
      .cls-1, .cls-2 {
        fill: #a0a0a0;
      }

      .cls-2 {
        fill-rule: evenodd;
      }
    </style>
  </defs>
  <title>carg</title>
  <path class="cls-1" d="M1333-625.7l-.3-1-.3-1h0c-.1.3-.1.7-.2,1l-.3,1Zm-1.3.8-.3,1.3h-1.1l1.4-4.9h1.5l1.5,4.9h-1.2l-.4-1.3Z" transform="translate(-1284 664.9)"/>
  <path class="cls-1" d="M1336.4-626.3h.4c.6,0,.9-.3.9-.7s-.3-.7-.8-.7h-.5Zm-1.1-2.1h1.5a2.1,2.1,0,0,1,1.5.4,1.1,1.1,0,0,1,.5,1,1.4,1.4,0,0,1-.9,1.2h0c.4.1.5.5.7.9a8.4,8.4,0,0,0,.4,1.4h-1.2a4.9,4.9,0,0,0-.3-1.2c-.1-.6-.3-.7-.8-.7h-.3v1.9h-1.1Z" transform="translate(-1284 664.9)"/>
  <polygon class="cls-1" points="58.4 39.2 56.7 39.2 56.7 40.4 58.6 40.4 58.6 41.3 55.6 41.3 55.6 36.4 58.5 36.4 58.5 37.3 56.7 37.3 56.7 38.3 58.4 38.3 58.4 39.2"/>
  <path class="cls-1" d="M1346.7-626.1c0-.9-.4-1.6-1.2-1.6s-1.2.7-1.2,1.7.5,1.6,1.2,1.6,1.2-.7,1.2-1.7m.8,3.3-1.9-.7h-.3a2.1,2.1,0,0,1-2.1-2.4,2.3,2.3,0,0,1,2.3-2.6,2.3,2.3,0,0,1,2.3,2.5,2.1,2.1,0,0,1-1.1,2.1h0l1.1.2Z" transform="translate(-1284 664.9)"/>
  <path class="cls-1" d="M1349.6-628.5v2.8c0,.8.3,1.3.9,1.3s.9-.4.9-1.3v-2.8h1.1v2.7c0,1.5-.8,2.2-2,2.2s-2-.6-2-2.2v-2.7Z" transform="translate(-1284 664.9)"/>
  <rect class="cls-1" x="69.4" y="36.4" width="1.1" height="4.83"/>
  <path class="cls-1" d="M1356.6-626.2h.3c.6,0,1-.3,1-.8s-.3-.7-.9-.7-.4,0-.4.1Zm-1.1-2.2h1.5a2,2,0,0,1,1.4.4,1.3,1.3,0,0,1,.5,1.1,1.2,1.2,0,0,1-.4,1.1,2.1,2.1,0,0,1-1.6.6h-.3v1.8h-1.1Z" transform="translate(-1284 664.9)"/>
  <path class="cls-1" d="M1361.6-625.7l-.3-1-.3-1h0c-.1.3-.1.7-.2,1l-.3,1Zm-1.3.8-.3,1.3h-1.1l1.4-4.9h1.5l1.5,4.9h-1.2l-.4-1.3Z" transform="translate(-1284 664.9)"/>
  <rect class="cls-1" x="81.6" y="35.9" width="0.3" height="7.17"/>
  <path class="cls-1" d="M1369-626h.7a1.2,1.2,0,0,0,1.3-1.2c0-.8-.5-1.1-1.3-1.1h-.7Zm-.3-2.4h1a1.7,1.7,0,0,1,1.3.4,1.3,1.3,0,0,1,.4.9,1.1,1.1,0,0,1-.4,1,1.7,1.7,0,0,1-1.4.6h-.6v2.1h-.3Z" transform="translate(-1284 664.9)"/>
  <polygon class="cls-1" points="90.6 38.9 88.6 38.9 88.6 41 90.8 41 90.8 41.3 88.3 41.3 88.3 36.4 90.7 36.4 90.7 36.7 88.6 36.7 88.6 38.6 90.6 38.6 90.6 38.9"/>
  <path class="cls-1" d="M1376-626.1h.7a1.2,1.2,0,0,0,1.3-1.1c0-.7-.6-1-1.3-1h-.7Zm-.4-2.3h1.1a1.7,1.7,0,0,1,1.3.4,1.2,1.2,0,0,1,.3.9,1.3,1.3,0,0,1-.9,1.2h0a1.3,1.3,0,0,1,.7,1.1,11.1,11.1,0,0,0,.4,1.3h-.4a4.9,4.9,0,0,0-.3-1.2,1.1,1.1,0,0,0-1.1-1.1h-.7v2.3h-.4Z" transform="translate(-1284 664.9)"/>
  <path class="cls-1" d="M1381.9-629.5l-.9.8h-.3l.7-.8Zm-2.3,1v2.9c0,1.3.6,1.8,1.3,1.8s1.3-.6,1.3-1.8v-2.9h.4v2.9c0,1.5-.8,2-1.7,2s-1.6-.4-1.6-1.9v-3Z" transform="translate(-1284 664.9)"/>
  <rect class="cls-1" x="39.8" y="33" width="1.4" height="10.99"/>
  <path class="cls-1" d="M1331.2-640.7a8.1,8.1,0,0,0,3.4.8c1.5,0,2.2-.6,2.2-1.5s-.6-1.3-2.3-1.9-3.8-2.1-3.8-4.1,2-4.2,5.3-4.2a8,8,0,0,1,3.5.7l-.7,2.5a8,8,0,0,0-2.9-.6c-1.4,0-2,.6-2,1.3s.8,1.3,2.6,2,3.5,2.1,3.5,4.1-1.7,4.3-5.5,4.3a8.4,8.4,0,0,1-4-.9Z" transform="translate(-1284 664.9)"/>
  <path class="cls-1" d="M1347.5-642.3c-1.7,0-2.9.4-2.9,1.6a1.1,1.1,0,0,0,1.2,1.2,1.7,1.7,0,0,0,1.6-1.1c0-.2.1-.4.1-.6Zm.3,4.8v-1h-.1a3.7,3.7,0,0,1-2.9,1.2,3.1,3.1,0,0,1-3.2-3.1c0-2.6,2.3-3.8,5.9-3.8v-.2c0-.5-.3-1.3-1.9-1.3a5.4,5.4,0,0,0-2.7.8l-.6-2a8.2,8.2,0,0,1,3.9-.9c3.3,0,4.4,2,4.4,4.3v3.5a15.7,15.7,0,0,0,.2,2.5Z" transform="translate(-1284 664.9)"/>
  <path class="cls-1" d="M1352.9-644.4c0-1.2-.1-2.3-.1-3.2h2.7l.2,1.4h0a3.9,3.9,0,0,1,3.1-1.6c2.1,0,3.6,1.4,3.6,4.3v6h-3.1v-5.6c0-1.3-.5-2.2-1.6-2.2a1.6,1.6,0,0,0-1.6,1.2,1.9,1.9,0,0,0-.1.8v5.8h-3.1Z" transform="translate(-1284 664.9)"/>
  <path class="cls-1" d="M1371.7-651.4h3.1v8.8c0,3.9-1.9,5.3-4.9,5.3a8.5,8.5,0,0,1-2.3-.3l.3-2.5,1.7.2c1.3,0,2.1-.6,2.1-2.8Z" transform="translate(-1284 664.9)"/>
  <path class="cls-1" d="M1386.7-640.7a30.1,30.1,0,0,0,.1,3.2h-2.7l-.2-1.4h0a3.7,3.7,0,0,1-3.2,1.6c-2,0-3.5-1.3-3.5-4.4v-5.9h3.1v5.4c0,1.5.5,2.4,1.6,2.4a1.7,1.7,0,0,0,1.5-1.1,1.5,1.5,0,0,0,.1-.7v-6h3.2Z" transform="translate(-1284 664.9)"/>
  <path class="cls-1" d="M1394.4-642.3c-1.6,0-2.9.4-2.9,1.6a1.2,1.2,0,0,0,1.3,1.2,1.8,1.8,0,0,0,1.6-1.1v-1.7Zm.4,4.8-.2-1h0a3.7,3.7,0,0,1-2.9,1.2,3.2,3.2,0,0,1-3.3-3.1c0-2.6,2.4-3.8,5.9-3.8v-.2c0-.5-.2-1.3-1.8-1.3a6.1,6.1,0,0,0-2.8.8l-.5-2a7.9,7.9,0,0,1,3.9-.9c3.3,0,4.4,2,4.4,4.3v3.5a17.8,17.8,0,0,0,.1,2.5Z" transform="translate(-1284 664.9)"/>
  <path class="cls-1" d="M1399.9-644.4c0-1.2-.1-2.3-.1-3.2h2.7v1.4h.1a3.7,3.7,0,0,1,3.1-1.6c2,0,3.6,1.4,3.6,4.3v6h-3.1v-5.6c0-1.3-.5-2.2-1.6-2.2a1.6,1.6,0,0,0-1.6,1.2,1.9,1.9,0,0,0-.1.8v5.8h-3.1Z" transform="translate(-1284 664.9)"/>
  <path class="cls-1" d="M1422.5-643.3c0-.2-.1-.4-.1-.6a1.8,1.8,0,0,0-1.8-1.5c-1.4,0-2.2,1.3-2.2,2.8s.9,2.8,2.2,2.8a1.8,1.8,0,0,0,1.8-1.5c0-.2.1-.4.1-.7Zm3.1-8.8v11.6a26.3,26.3,0,0,0,.1,3h-2.8V-639h-.1a3.4,3.4,0,0,1-3.1,1.7c-2.4,0-4.3-2-4.3-5.1s2.1-5.4,4.5-5.4a2.9,2.9,0,0,1,2.6,1.1h.1v-5.4Z" transform="translate(-1284 664.9)"/>
  <path class="cls-1" d="M1434.1-643.7a1.9,1.9,0,0,0-1.8-2,2,2,0,0,0-1.9,2Zm-3.7,2.2c.1,1.2,1.4,1.9,2.8,1.9a11.1,11.1,0,0,0,2.8-.4l.4,2.1a10.1,10.1,0,0,1-3.6.6c-3.4,0-5.4-2-5.4-5.1s1.6-5.4,5.1-5.4,4.5,2.5,4.5,5c0,.6-.1,1-.1,1.3Z" transform="translate(-1284 664.9)"/>
  <path class="cls-1" d="M1446-639.9h1.1c2.9,0,4.7-1.6,4.7-4.9s-1.6-4.4-4.3-4.4l-1.5.2Zm-3.1-11.3a25,25,0,0,1,4.2-.3c2.7,0,4.4.5,5.7,1.5a6.3,6.3,0,0,1,2.3,5.2c0,2.7-.9,4.5-2.3,5.6s-3.6,1.8-6.3,1.8l-3.6-.2Z" transform="translate(-1284 664.9)"/>
  <path class="cls-1" d="M1457.1-647.6h3.1v10.1h-3.1Zm3.2-2.8a1.6,1.6,0,0,1-1.7,1.6,1.5,1.5,0,0,1-1.6-1.6,1.4,1.4,0,0,1,1.6-1.5c1.1,0,1.7.6,1.7,1.5" transform="translate(-1284 664.9)"/>
  <path class="cls-1" d="M1465.3-642.6c0,1.8.7,3.1,2,3.1s2-1.2,2-3.1-.6-3-2-3-2,1.6-2,3m7.2-.1a5.1,5.1,0,0,1-5.3,5.4,4.9,4.9,0,0,1-5.2-5.2,5.1,5.1,0,0,1,5.4-5.3,4.8,4.8,0,0,1,5.1,5.1" transform="translate(-1284 664.9)"/>
  <path class="cls-1" d="M1474.3-640.3a5.7,5.7,0,0,0,2.7.8c1,0,1.4-.3,1.4-.8s-.3-.8-1.5-1.2-2.9-1.8-2.9-3,1.6-3.3,4.1-3.3a7,7,0,0,1,2.9.6l-.6,2.1a5.5,5.5,0,0,0-2.2-.5c-.7,0-1.2.3-1.2.8s.4.7,1.7,1.1,2.7,1.7,2.7,3.1-1.5,3.3-4.4,3.3a7.2,7.2,0,0,1-3.2-.7Z" transform="translate(-1284 664.9)"/>
  <path class="cls-1" d="M1335.6-657.3a3.2,3.2,0,0,1-1.7.4,3.1,3.1,0,0,1-3.2-3.3,3.2,3.2,0,0,1,3.4-3.3,4,4,0,0,1,1.5.2l-.2.7a4.2,4.2,0,0,0-1.3-.3,2.4,2.4,0,0,0-2.5,2.7,2.3,2.3,0,0,0,2.5,2.6,2.5,2.5,0,0,0,1.3-.3Z" transform="translate(-1284 664.9)"/>
  <polygon class="cls-1" points="52.6 1.5 53.4 1.5 53.4 7.2 56.2 7.2 56.2 7.8 52.6 7.8 52.6 1.5"/>
  <path class="cls-1" d="M1341.9-657h-.8v-6.4h.8Zm1-7.9-1.2,1.1h-.7l.9-1.1Z" transform="translate(-1284 664.9)"/>
  <path class="cls-1" d="M1343.3-657v-6.4h1l2,3.2a22.5,22.5,0,0,1,1.2,2.1h0a23.5,23.5,0,0,1-.1-2.7v-2.6h.8v6.4h-.9l-2-3.3a11.3,11.3,0,0,1-1.2-2.1h0v5.4Z" transform="translate(-1284 664.9)"/>
  <rect class="cls-1" x="65.6" y="1.5" width="0.8" height="6.4"/>
  <path class="cls-1" d="M1356.3-657.3a3.2,3.2,0,0,1-1.7.4,3,3,0,0,1-3.1-3.3,3.1,3.1,0,0,1,3.3-3.3,4,4,0,0,1,1.5.2l-.2.7a3.5,3.5,0,0,0-1.2-.3,2.4,2.4,0,0,0-2.5,2.7,2.3,2.3,0,0,0,2.4,2.6,3.2,3.2,0,0,0,1.4-.3Z" transform="translate(-1284 664.9)"/>
  <path class="cls-1" d="M1360.5-659.7l-.6-1.8-.3-1.2h0a3.6,3.6,0,0,1-.4,1.1l-.6,1.9Zm-2.1.6-.6,2.1h-.9l2.2-6.4h1l2.2,6.4h-.9l-.7-2.1Z" transform="translate(-1284 664.9)"/>
  <rect class="cls-1" x="39.8" y="0.1" width="1.4" height="32.98"/>
  <path class="cls-2" d="M1302.5-630.1h-.4a.9.9,0,0,0-.9-1,.8.8,0,0,0-.9.6,7,7,0,0,1-2.4-1.3.6.6,0,0,0,.1-.4.9.9,0,0,0-.9-1h-.4l-.3-.6a.9.9,0,0,0,.3-.7.9.9,0,0,0-.9-1,5.7,5.7,0,0,1-.1-1.3,4.9,4.9,0,0,1,.1-1.2h0a.9.9,0,0,0,.9-.9,1.2,1.2,0,0,0-.4-.8l.4-.5h.4a1,1,0,0,0,.9-1,.8.8,0,0,0-.2-.5,5.8,5.8,0,0,1,2.4-1.4,1,1,0,0,0,1,.7.9.9,0,0,0,.9-.9v-.2h.8v.2a.9.9,0,0,0,1,.9,1,1,0,0,0,.9-.7,5.9,5.9,0,0,1,2.3,1.4.7.7,0,0,0-.1.5,1,1,0,0,0,1,1h.3l.3.6a1.5,1.5,0,0,0-.3.7c0,.5.4.8.9.9a4.9,4.9,0,0,1,.1,1.2c0,.5-.1.9-.1,1.3a1.1,1.1,0,0,0-.9,1,.9.9,0,0,0,.3.6,2.1,2.1,0,0,1-.4.6h-.2a.9.9,0,0,0-1,1v.4a6.1,6.1,0,0,1-2.2,1.3,1,1,0,0,0-.9-.6.9.9,0,0,0-1,1h-.4m3.8-16.5a.6.6,0,0,1,.7-.4,2.9,2.9,0,0,0,2.1.9,2,2,0,0,0,1.9-1.9,2.3,2.3,0,0,0-1.7-2.4,6,6,0,0,0-5.1.3v-2.3h3.5v-3.4h-3.5v-3.5h-3.4v3.5h-3.6v3.4h3.6v2.2a6.2,6.2,0,0,0-5-.2,2.3,2.3,0,0,0-1.7,2.4,2,2,0,0,0,1.9,1.9,2.9,2.9,0,0,0,2.1-.9.7.7,0,0,1,.8.4,10.5,10.5,0,0,0-6.8,9.8,10.6,10.6,0,0,0,10.5,10.5,10.5,10.5,0,0,0,10.4-10.5,10.6,10.6,0,0,0-6.7-9.8" transform="translate(-1284 664.9)"/>
  <path class="cls-2" d="M1299.8-640a1,1,0,0,0,.9-1,.9.9,0,0,0-.9-1,.9.9,0,0,0-1,1,1,1,0,0,0,1,1" transform="translate(-1284 664.9)"/>
  <path class="cls-2" d="M1302.5-640a1,1,0,0,0,.9-1,.9.9,0,0,0-.9-1,.9.9,0,0,0-1,1,1,1,0,0,0,1,1" transform="translate(-1284 664.9)"/>
  <path class="cls-2" d="M1305.2-640a1,1,0,0,0,1-1,.9.9,0,0,0-1-1,.9.9,0,0,0-1,1,1,1,0,0,0,1,1" transform="translate(-1284 664.9)"/>
  <path class="cls-2" d="M1298.5-637.9a.9.9,0,0,0,.9-.9.9.9,0,0,0-.9-1,.9.9,0,0,0-1,1,.9.9,0,0,0,1,.9" transform="translate(-1284 664.9)"/>
  <path class="cls-2" d="M1300.2-638.8a.9.9,0,0,0,1,.9.9.9,0,0,0,.9-.9.9.9,0,0,0-.9-1,.9.9,0,0,0-1,1" transform="translate(-1284 664.9)"/>
  <path class="cls-2" d="M1302.9-638.8a.9.9,0,0,0,1,.9.9.9,0,0,0,.9-.9.9.9,0,0,0-.9-1,.9.9,0,0,0-1,1" transform="translate(-1284 664.9)"/>
  <path class="cls-2" d="M1305.6-638.8a.9.9,0,0,0,1,.9,1,1,0,0,0,1-.9,1,1,0,0,0-1-1,.9.9,0,0,0-1,1" transform="translate(-1284 664.9)"/>
  <path class="cls-2" d="M1298-636.5a.9.9,0,0,0-.9-1,.9.9,0,0,0-1,1,.9.9,0,0,0,1,.9.9.9,0,0,0,.9-.9" transform="translate(-1284 664.9)"/>
  <path class="cls-2" d="M1299.8-637.5a.9.9,0,0,0-1,1,.9.9,0,0,0,1,.9.9.9,0,0,0,.9-.9.9.9,0,0,0-.9-1" transform="translate(-1284 664.9)"/>
  <path class="cls-2" d="M1302.5-637.5a.9.9,0,0,0-1,1,.9.9,0,0,0,1,.9.9.9,0,0,0,.9-.9.9.9,0,0,0-.9-1" transform="translate(-1284 664.9)"/>
  <path class="cls-2" d="M1306.2-636.5a.9.9,0,0,0-1-1,.9.9,0,0,0-1,1,.9.9,0,0,0,1,.9.9.9,0,0,0,1-.9" transform="translate(-1284 664.9)"/>
  <path class="cls-2" d="M1307-636.5a.9.9,0,0,0,1,.9.9.9,0,0,0,.9-.9.9.9,0,0,0-.9-1,.9.9,0,0,0-1,1" transform="translate(-1284 664.9)"/>
  <path class="cls-2" d="M1299.4-634.4a.9.9,0,0,0-.9-1,.9.9,0,0,0-1,1,.9.9,0,0,0,1,.9.9.9,0,0,0,.9-.9" transform="translate(-1284 664.9)"/>
  <path class="cls-2" d="M1302.1-634.4a.9.9,0,0,0-.9-1,.9.9,0,0,0-1,1,.9.9,0,0,0,1,.9.9.9,0,0,0,.9-.9" transform="translate(-1284 664.9)"/>
  <path class="cls-2" d="M1304.8-634.4a.9.9,0,0,0-.9-1,.9.9,0,0,0-1,1,.9.9,0,0,0,1,.9.9.9,0,0,0,.9-.9" transform="translate(-1284 664.9)"/>
  <path class="cls-2" d="M1306.6-635.4a.9.9,0,0,0-1,1,.9.9,0,0,0,1,.9,1,1,0,0,0,1-.9,1,1,0,0,0-1-1" transform="translate(-1284 664.9)"/>
  <path class="cls-2" d="M1299.8-633.2a.9.9,0,0,0-1,1,.9.9,0,0,0,1,.9.9.9,0,0,0,.9-.9.9.9,0,0,0-.9-1" transform="translate(-1284 664.9)"/>
  <path class="cls-2" d="M1303.4-632.2a.9.9,0,0,0-.9-1,.9.9,0,0,0-1,1,.9.9,0,0,0,1,.9.9.9,0,0,0,.9-.9" transform="translate(-1284 664.9)"/>
  <path class="cls-2" d="M1305.2-633.2a.9.9,0,0,0-1,1,.9.9,0,0,0,1,.9.9.9,0,0,0,1-.9.9.9,0,0,0-1-1" transform="translate(-1284 664.9)"/>
  <path class="cls-2" d="M1315.9-632.5a3.1,3.1,0,0,0-2.3,2.8,3.7,3.7,0,0,1-1.2.7c-.5.1-.6.3-1.3.2a12.1,12.1,0,0,0,2.4-3.9,6.4,6.4,0,0,1,1.8-1.3c2.1-.7,3.4-1.6,4-2.7s1-3.4,1.8-4.7c-2.5.4-5.4,2.2-6.1,6.7a13.5,13.5,0,0,1-1.2,1.2,12,12,0,0,0,.5-3.3,8.3,8.3,0,0,0-.3-2.2,3.1,3.1,0,0,0,2.9-2.2c.8-2.6,1.5-4.3,2.2-4.8-3.9.3-6.7,2.1-5.6,6.9h0a9.1,9.1,0,0,1,.3,2.3,10.3,10.3,0,0,1-.6,3.5h0a11.5,11.5,0,0,1-3.3,4.9,12,12,0,0,0,2.7,0c1-.2,3.6-.7,4.5-1.4s1.9-2.6,3.3-4.1c-1.9.8-3.1.7-4.5,1.3" transform="translate(-1284 664.9)"/>
  <path class="cls-2" d="M1289.3-632.5a3.4,3.4,0,0,1,2.3,2.8c.1.3.9.6,1.2.7a2.2,2.2,0,0,0,1.3.2,10.8,10.8,0,0,1-2.5-3.9,7.6,7.6,0,0,0-1.7-1.3,7,7,0,0,1-4.1-2.7c-.7-1.4-1-3.4-1.8-4.7,2.5.4,5.4,2.2,6.1,6.7l1.2,1.2a11.9,11.9,0,0,1-.4-3.3,8.2,8.2,0,0,1,.2-2.2c-1.1,0-2.1-.6-2.8-2.2s-1.6-4.3-2.2-4.8c3.9.3,6.6,2.1,5.5,6.9h0a9,9,0,0,0-.2,2.3,10.2,10.2,0,0,0,.5,3.5h.1a11.3,11.3,0,0,0,3.2,4.9,12,12,0,0,1-2.7,0c-1-.2-3.6-.7-4.5-1.4s-1.9-2.6-3.2-4.1c1.8.8,3.1.7,4.5,1.3" transform="translate(-1284 664.9)"/>
</svg>
