<svg id="fundacion_amigos_vnzla" data-name="fundacion amigos vnzla" xmlns="http://www.w3.org/2000/svg" viewBox="0 0 1178.2 265.6">
  <defs>
    <style>
      .cls-1, .cls-2 {
        fill: #a0a0a0;
      }

      .cls-2 {
        font-size: 57.17px;
        font-family: MyriadPro-Regular, Myriad Pro;
        letter-spacing: 0.01em;
      }

      .cls-3 {
        letter-spacing: -0.01em;
      }

      .cls-4 {
        letter-spacing: -0.01em;
      }

      .cls-5 {
        letter-spacing: 0em;
      }
    </style>
  </defs>
  <title>favg</title>
  <g>
    <path class="cls-1" d="M306.2,170.6a48.3,48.3,0,0,0,20.9,5.2c8.7,0,13.3-3.6,13.3-9s-4-8.2-14-11.8c-13.9-4.8-22.9-12.5-22.9-24.6,0-14.2,11.9-25.1,31.6-25.1a50.9,50.9,0,0,1,21.2,4.2l-4.2,15.2a39.5,39.5,0,0,0-17.4-4c-8.2,0-12.1,3.8-12.1,8.1s4.7,7.7,15.4,11.7c14.7,5.5,21.7,13.2,21.7,24.9,0,14-10.8,25.9-33.7,25.9-9.5,0-18.9-2.5-23.6-5.1Z" transform="translate(-32.5 -25.3)"/>
    <path class="cls-1" d="M404.4,161.5c-9.9-.2-17.6,2.2-17.6,9.5,0,4.8,3.2,7.2,7.4,7.2a10.2,10.2,0,0,0,9.8-7,16.5,16.5,0,0,0,.4-3.2Zm2.2,28.5-1.1-6h-.4c-4,4.8-10.1,7.4-17.3,7.4-12.3,0-19.6-8.9-19.6-18.6,0-15.7,14.1-23.2,35.5-23.1v-.9c0-3.2-1.7-7.8-11-7.8a33.8,33.8,0,0,0-16.7,4.6l-3.4-12.1c4.2-2.4,12.5-5.3,23.5-5.3,20.1,0,26.6,11.9,26.6,26.1v21a96.9,96.9,0,0,0,.8,14.7Z" transform="translate(-32.5 -25.3)"/>
    <path class="cls-1" d="M436.9,148.8c0-7.5-.2-13.9-.5-19.3h16.4l.8,8.3h.4a22.3,22.3,0,0,1,18.7-9.6c12.4,0,21.6,8.1,21.6,26V190H475.5V156.5c0-7.8-2.7-13.1-9.5-13.1a10,10,0,0,0-9.5,7,13.4,13.4,0,0,0-.8,4.8V190H436.9Z" transform="translate(-32.5 -25.3)"/>
    <path class="cls-1" d="M550.2,106.6H569v52.8c0,23.7-11.4,32-29.7,32a47.5,47.5,0,0,1-13.8-2l2.1-15.2a30.4,30.4,0,0,0,9.7,1.5c7.9,0,12.9-3.6,12.9-16.6Z" transform="translate(-32.5 -25.3)"/>
    <path class="cls-1" d="M640.5,170.6c0,7.9.3,14.4.5,19.4H624.7l-.9-8.5h-.4c-2.3,3.7-8,9.9-18.9,9.9s-21.3-7.7-21.3-26.4V129.5h18.9v32.6c0,8.8,2.9,14.1,9.5,14.1s8.1-3.6,9.4-6.6a10.4,10.4,0,0,0,.6-4.1v-36h18.9Z" transform="translate(-32.5 -25.3)"/>
    <path class="cls-1" d="M687.2,161.5c-9.9-.2-17.6,2.2-17.6,9.5,0,4.8,3.2,7.2,7.4,7.2a10.2,10.2,0,0,0,9.8-7,11.2,11.2,0,0,0,.4-3.2Zm2.2,28.5-1.1-6h-.4c-3.9,4.8-10.1,7.4-17.3,7.4-12.3,0-19.6-8.9-19.6-18.6,0-15.7,14.1-23.2,35.6-23.1v-.9c0-3.2-1.8-7.8-11.1-7.8a34.1,34.1,0,0,0-16.7,4.6l-3.4-12.1c4.2-2.4,12.5-5.3,23.5-5.3,20.2,0,26.6,11.9,26.6,26.1v21c0,5.8.2,11.4.9,14.7Z" transform="translate(-32.5 -25.3)"/>
    <path class="cls-1" d="M719.7,148.8c0-7.5-.2-13.9-.5-19.3h16.4l.8,8.3h.4a22.3,22.3,0,0,1,18.7-9.6c12.4,0,21.7,8.1,21.7,26V190H758.3V156.5c0-7.8-2.7-13.1-9.5-13.1a10,10,0,0,0-9.5,7,13.4,13.4,0,0,0-.8,4.8V190H719.7Z" transform="translate(-32.5 -25.3)"/>
    <path class="cls-1" d="M855.9,155.2c0-1-.2-2.4-.3-3.4-1.1-5.1-5.2-9.3-11-9.3-8.5,0-13,7.7-13,17.2s5.1,16.7,12.9,16.7a11,11,0,0,0,10.9-9,19.5,19.5,0,0,0,.5-4.3Zm18.8-53V172c0,6.8.2,14,.5,18H858.5l-.9-8.9h-.2c-3.9,6.8-11.2,10.3-19,10.3-14.3,0-25.8-12.2-25.8-31.1-.2-20.4,12.6-32.1,27.1-32.1,7.4,0,13.2,2.6,15.9,6.8h.3V102.2Z" transform="translate(-32.5 -25.3)"/>
    <path class="cls-1" d="M925.8,152.9c0-4.6-2-12.2-10.6-12.2s-11.2,7.1-11.7,12.2Zm-22.1,12.9c.6,7.8,8.2,11.5,17,11.5a52.9,52.9,0,0,0,16.7-2.5l2.5,12.8a61.2,61.2,0,0,1-21.9,3.7c-20.5,0-32.3-11.9-32.3-30.8,0-15.4,9.5-32.3,30.6-32.3,19.5,0,27,15.2,27,30.2a38.2,38.2,0,0,1-.7,7.4Z" transform="translate(-32.5 -25.3)"/>
    <path class="cls-1" d="M997.8,175.8a33.4,33.4,0,0,0,6.6.4c17.1.1,28.2-9.3,28.2-29.2.1-17.3-10-26.5-26.2-26.5a47.3,47.3,0,0,0-8.6.7Zm-18.9-68a157.2,157.2,0,0,1,25.5-1.8c15.8,0,26.1,2.9,34.2,8.9s14.1,16.7,14.1,31.5-5.9,26.9-13.9,33.7-22.1,10.8-38.5,10.8a167.9,167.9,0,0,1-21.4-1.2Z" transform="translate(-32.5 -25.3)"/>
    <path class="cls-1" d="M1064.3,129.5h18.8V190h-18.8Zm19.4-16.8c0,5.2-3.9,9.4-10.1,9.4s-9.9-4.2-9.8-9.4,3.9-9.5,9.9-9.5,9.9,4.1,10,9.5" transform="translate(-32.5 -25.3)"/>
    <path class="cls-1" d="M1113.6,159.7c0,10.4,4.3,18.2,12.3,18.2s12-7.3,12-18.2c0-9-3.4-18.2-12-18.2s-12.3,9.3-12.3,18.2m43.8-.6c0,22.2-15.7,32.3-32,32.3s-31.3-11.6-31.3-31.2,12.9-32,32.3-32,31,12.7,31,30.9" transform="translate(-32.5 -25.3)"/>
    <path class="cls-1" d="M1168.3,173.6a36.4,36.4,0,0,0,16.2,4.6c5.7,0,8-2,8-5.1s-1.8-4.6-8.9-6.9c-12.5-4.2-17.3-11.1-17.2-18.2,0-11.3,9.7-19.8,24.6-19.8a41.5,41.5,0,0,1,17.1,3.4l-3.3,13a29.4,29.4,0,0,0-13.1-3.4c-4.6,0-7.2,1.8-7.2,4.9s2.3,4.3,9.8,6.9c11.5,4,16.3,9.8,16.4,18.7,0,11.3-8.9,19.6-26.2,19.6-7.9,0-15-1.7-19.6-4.2Z" transform="translate(-32.5 -25.3)"/>
    <rect class="cls-1" x="229.6" y="0.4" width="8.5" height="198.56"/>
    <g>
      <path class="cls-1" d="M191.6,210.6c-.8,1.6-1,3.5-1.9,5.4-1.5,3.5-5.1,5.8-9.3,6.4,2-3.3,4.9-6.4,6.9-10.1a61.7,61.7,0,0,0,5.3-12.3c3.4-3.7,7.9-5.2,12.1-7.3,7.9-3.8,14.4-10.4,16.9-19.4,1.2-4.3,1-9.3,3.4-13.5.9-1.7,2.4-2.8,3.4-4.7-7.6.3-12.8,3.2-17.7,6.2-6.4,5.1-11.8,12-13.2,22.1-.4,3.1-.2,7.4-2.7,8.8,1.5-7.7,1.2-16,.5-23.6,5.6-3.3,10.4-8.1,12.8-14.2,1.1-2.9,1.3-5.8,2.2-9,1.7-5.8,4.9-10.3,8.6-14.5a27.8,27.8,0,0,0-30.4,19.4,34.6,34.6,0,0,0-1.2,6.1c-.3,4.6,1.1,8,1.9,11.1,2.6,10.3,1.2,21.4-1.5,30.4a59.6,59.6,0,0,1-62.8,41.3c-20.8-2.2-35.1-12.1-44.3-25.7a60.2,60.2,0,0,1-9.4-41.7c.6-4.5,2.8-9.4,2.3-15.2a27.9,27.9,0,0,0-10.1-19.1c-5.3-4.3-12.6-7.7-21.6-6.3,1,1.5,2.3,2.7,3.4,4.1a32.9,32.9,0,0,1,5,10.5c.6,1.9.9,4,1.5,6.2a27,27,0,0,0,9.5,13.9c1.5,1.1,4.2,2.3,4.6,3.3s-.4,4.3-.5,6.1a63.5,63.5,0,0,0,1.1,17.6c-3-2-2.4-6.2-2.8-9.1a35.4,35.4,0,0,0-2.9-9.2c-4.9-10.5-14.2-17.6-28.2-19,1.2,2.1,2.4,3,3.4,4.9,2.5,4.6,2.2,9.9,3.7,14.5a29.6,29.6,0,0,0,17.7,18.7c3.6,1.5,9.6,4,11.3,7.1s1.5,4.3,2.4,6.3A75.6,75.6,0,0,0,77.2,218c1.3,1.7,2.9,3.2,3.4,4.9a11.9,11.9,0,0,1-8.3-5c-1.7-2.5-2.2-5.8-3.7-8.5a22.2,22.2,0,0,0-3.9-5.5,22.6,22.6,0,0,0-4.9-4.1c-7.5-4.4-20.8-4.8-27.1,1.7,6.2,3,11.5,6.2,15.3,11.6,1.1,1.5,1.7,2.9,2.7,4.1,6.5,7.6,19.7,14.4,33,8.8a69.5,69.5,0,0,0,19.7,13.3c7.7,3.4,17,6.2,27.2,5.8,20.9-.9,35.9-8.8,47-19.6a29.2,29.2,0,0,0,14.5,1.8c7.6-1,15.4-6.2,18.9-11.3,1.2-1.8,2-3.4,3.2-4.9a32.6,32.6,0,0,1,8.8-7.7c1.6-1,3.8-1.3,5.4-2.9a21.7,21.7,0,0,0-12.8-4.7c-12.1-.7-20.3,6.7-24,14.8" transform="translate(-32.5 -25.3)"/>
      <path class="cls-1" d="M116.5,202.2a4,4,0,0,0-3.9-4,4,4,0,0,0,0,7.9,4,4,0,0,0,3.9-3.9" transform="translate(-32.5 -25.3)"/>
      <path class="cls-1" d="M125.9,202.2a4,4,0,0,0-3.9-4,4,4,0,0,0,0,7.9,4,4,0,0,0,3.9-3.9" transform="translate(-32.5 -25.3)"/>
      <path class="cls-1" d="M134.8,202.2a3.9,3.9,0,0,0-3.9-4,4,4,0,0,0,0,7.9,3.9,3.9,0,0,0,3.9-3.9" transform="translate(-32.5 -25.3)"/>
      <path class="cls-1" d="M143.8,202.2a4,4,0,0,0-3.9-4,4,4,0,0,0,0,7.9,4,4,0,0,0,3.9-3.9" transform="translate(-32.5 -25.3)"/>
      <path class="cls-1" d="M148.8,198.2a4,4,0,0,0,0,7.9,4,4,0,0,0,0-7.9" transform="translate(-32.5 -25.3)"/>
      <path class="cls-1" d="M107.5,186.2a3.8,3.8,0,0,0-3.9-3.9,3.9,3.9,0,0,0-3.9,3.9,4,4,0,0,0,3.9,3.9,3.9,3.9,0,0,0,3.9-3.9" transform="translate(-32.5 -25.3)"/>
      <path class="cls-1" d="M108.7,186.2a3.9,3.9,0,0,0,3.9,3.9,4,4,0,0,0,3.9-3.9,3.9,3.9,0,0,0-3.9-3.9,3.8,3.8,0,0,0-3.9,3.9" transform="translate(-32.5 -25.3)"/>
      <path class="cls-1" d="M125.9,186.2a3.9,3.9,0,0,0-3.9-3.9,3.8,3.8,0,0,0-3.9,3.9,3.9,3.9,0,0,0,3.9,3.9,4,4,0,0,0,3.9-3.9" transform="translate(-32.5 -25.3)"/>
      <path class="cls-1" d="M134.8,186.2a3.8,3.8,0,0,0-3.9-3.9,3.9,3.9,0,0,0-3.9,3.9,4,4,0,0,0,3.9,3.9,3.9,3.9,0,0,0,3.9-3.9" transform="translate(-32.5 -25.3)"/>
      <path class="cls-1" d="M143.8,186.2a3.9,3.9,0,0,0-3.9-3.9,3.8,3.8,0,0,0-3.9,3.9,3.9,3.9,0,0,0,3.9,3.9,4,4,0,0,0,3.9-3.9" transform="translate(-32.5 -25.3)"/>
      <path class="cls-1" d="M144.9,186.2a4,4,0,0,0,3.9,3.9,3.9,3.9,0,0,0,3.9-3.9,3.8,3.8,0,0,0-3.9-3.9,3.9,3.9,0,0,0-3.9,3.9" transform="translate(-32.5 -25.3)"/>
      <path class="cls-1" d="M157.8,182.3a3.8,3.8,0,0,0-3.9,3.9,3.9,3.9,0,0,0,3.9,3.9,4,4,0,0,0,3.9-3.9,3.9,3.9,0,0,0-3.9-3.9" transform="translate(-32.5 -25.3)"/>
      <path class="cls-1" d="M103.6,174.6a3.9,3.9,0,1,0,0-7.8,3.9,3.9,0,0,0,0,7.8" transform="translate(-32.5 -25.3)"/>
      <path class="cls-1" d="M108.7,170.7a3.8,3.8,0,0,0,3.9,3.9,3.9,3.9,0,1,0,0-7.8,3.8,3.8,0,0,0-3.9,3.9" transform="translate(-32.5 -25.3)"/>
      <path class="cls-1" d="M122,166.8a3.9,3.9,0,0,0,0,7.8,3.9,3.9,0,1,0,0-7.8" transform="translate(-32.5 -25.3)"/>
      <path class="cls-1" d="M130.9,166.8a3.9,3.9,0,1,0,0,7.8,3.9,3.9,0,1,0,0-7.8" transform="translate(-32.5 -25.3)"/>
      <path class="cls-1" d="M139.9,166.8a3.9,3.9,0,0,0,0,7.8,3.9,3.9,0,1,0,0-7.8" transform="translate(-32.5 -25.3)"/>
      <path class="cls-1" d="M144.9,170.7a3.9,3.9,0,0,0,3.9,3.9,3.9,3.9,0,0,0,0-7.8,3.9,3.9,0,0,0-3.9,3.9" transform="translate(-32.5 -25.3)"/>
      <path class="cls-1" d="M153.9,170.7a3.8,3.8,0,0,0,3.9,3.9,3.9,3.9,0,0,0,0-7.8,3.8,3.8,0,0,0-3.9,3.9" transform="translate(-32.5 -25.3)"/>
      <path class="cls-1" d="M122,159.2a4,4,0,0,0,3.9-3.9,3.9,3.9,0,0,0-3.9-3.9,3.8,3.8,0,0,0-3.9,3.9,3.9,3.9,0,0,0,3.9,3.9" transform="translate(-32.5 -25.3)"/>
      <path class="cls-1" d="M130.9,159.2a3.9,3.9,0,0,0,3.9-3.9,3.8,3.8,0,0,0-3.9-3.9,3.9,3.9,0,0,0-3.9,3.9,4,4,0,0,0,3.9,3.9" transform="translate(-32.5 -25.3)"/>
      <path class="cls-1" d="M139.9,159.2a4,4,0,0,0,3.9-3.9,3.9,3.9,0,0,0-3.9-3.9,3.8,3.8,0,0,0-3.9,3.9,3.9,3.9,0,0,0,3.9,3.9" transform="translate(-32.5 -25.3)"/>
      <path class="cls-1" d="M117.3,206.1a3.9,3.9,0,0,0-3.9,3.9,4,4,0,0,0,3.9,3.9,3.9,3.9,0,0,0,3.9-3.9,3.8,3.8,0,0,0-3.9-3.9" transform="translate(-32.5 -25.3)"/>
      <path class="cls-1" d="M126.3,206.1a3.8,3.8,0,0,0-3.9,3.9,3.9,3.9,0,0,0,3.9,3.9,4,4,0,0,0,3.9-3.9,3.9,3.9,0,0,0-3.9-3.9" transform="translate(-32.5 -25.3)"/>
      <path class="cls-1" d="M135.2,206.1a3.9,3.9,0,0,0-3.9,3.9,4,4,0,0,0,3.9,3.9,3.9,3.9,0,0,0,3.9-3.9,3.8,3.8,0,0,0-3.9-3.9" transform="translate(-32.5 -25.3)"/>
      <path class="cls-1" d="M144.2,206.1a3.8,3.8,0,0,0-3.9,3.9,3.9,3.9,0,0,0,3.9,3.9,4,4,0,0,0,3.9-3.9,3.9,3.9,0,0,0-3.9-3.9" transform="translate(-32.5 -25.3)"/>
      <path class="cls-1" d="M111.8,194.2a3.9,3.9,0,0,0-3.9-3.9,4,4,0,0,0-3.9,3.9,3.9,3.9,0,0,0,3.9,3.9,3.8,3.8,0,0,0,3.9-3.9" transform="translate(-32.5 -25.3)"/>
      <path class="cls-1" d="M113.4,194.2a3.9,3.9,0,0,0,3.9,3.9,3.8,3.8,0,0,0,3.9-3.9,3.9,3.9,0,0,0-3.9-3.9,4,4,0,0,0-3.9,3.9" transform="translate(-32.5 -25.3)"/>
      <path class="cls-1" d="M126.3,198.1a3.9,3.9,0,0,0,3.9-3.9,4,4,0,0,0-3.9-3.9,3.9,3.9,0,0,0-3.9,3.9,3.8,3.8,0,0,0,3.9,3.9" transform="translate(-32.5 -25.3)"/>
      <path class="cls-1" d="M135.2,198.1a3.8,3.8,0,0,0,3.9-3.9,3.9,3.9,0,0,0-3.9-3.9,4,4,0,0,0-3.9,3.9,3.9,3.9,0,0,0,3.9,3.9" transform="translate(-32.5 -25.3)"/>
      <path class="cls-1" d="M144.2,198.1a3.9,3.9,0,0,0,3.9-3.9,4,4,0,0,0-3.9-3.9,3.9,3.9,0,0,0-3.9,3.9,3.8,3.8,0,0,0,3.9,3.9" transform="translate(-32.5 -25.3)"/>
      <path class="cls-1" d="M153.1,190.3a4,4,0,0,0-3.9,3.9,3.9,3.9,0,0,0,3.9,3.9,3.8,3.8,0,0,0,3.9-3.9,3.9,3.9,0,0,0-3.9-3.9" transform="translate(-32.5 -25.3)"/>
      <path class="cls-1" d="M102.9,178.7a3.9,3.9,0,0,0-3.9-3.9,3.8,3.8,0,0,0-3.9,3.9,3.9,3.9,0,0,0,3.9,3.9,4,4,0,0,0,3.9-3.9" transform="translate(-32.5 -25.3)"/>
      <path class="cls-1" d="M107.9,174.8a3.9,3.9,0,0,0-3.9,3.9,4,4,0,0,0,3.9,3.9,3.9,3.9,0,0,0,3.9-3.9,3.8,3.8,0,0,0-3.9-3.9" transform="translate(-32.5 -25.3)"/>
      <path class="cls-1" d="M113.4,178.7a4,4,0,0,0,3.9,3.9,3.9,3.9,0,0,0,3.9-3.9,3.8,3.8,0,0,0-3.9-3.9,3.9,3.9,0,0,0-3.9,3.9" transform="translate(-32.5 -25.3)"/>
      <path class="cls-1" d="M122.4,178.7a3.9,3.9,0,0,0,3.9,3.9,4,4,0,0,0,3.9-3.9,3.9,3.9,0,0,0-3.9-3.9,3.8,3.8,0,0,0-3.9,3.9" transform="translate(-32.5 -25.3)"/>
      <path class="cls-1" d="M131.3,178.7a4,4,0,0,0,3.9,3.9,3.9,3.9,0,0,0,3.9-3.9,3.8,3.8,0,0,0-3.9-3.9,3.9,3.9,0,0,0-3.9,3.9" transform="translate(-32.5 -25.3)"/>
      <path class="cls-1" d="M144.2,174.8a3.8,3.8,0,0,0-3.9,3.9,3.9,3.9,0,0,0,3.9,3.9,4,4,0,0,0,3.9-3.9,3.9,3.9,0,0,0-3.9-3.9" transform="translate(-32.5 -25.3)"/>
      <path class="cls-1" d="M157,178.7a3.8,3.8,0,0,0-3.9-3.9,3.9,3.9,0,0,0-3.9,3.9,4,4,0,0,0,3.9,3.9,3.9,3.9,0,0,0,3.9-3.9" transform="translate(-32.5 -25.3)"/>
      <path class="cls-1" d="M158.6,178.7a3.9,3.9,0,0,0,3.9,3.9,4,4,0,0,0,3.9-3.9,3.9,3.9,0,0,0-3.9-3.9,3.8,3.8,0,0,0-3.9,3.9" transform="translate(-32.5 -25.3)"/>
      <path class="cls-1" d="M104,163a3.9,3.9,0,0,0,3.9,3.9,3.9,3.9,0,0,0,0-7.8A3.9,3.9,0,0,0,104,163" transform="translate(-32.5 -25.3)"/>
      <path class="cls-1" d="M117.3,166.9a3.9,3.9,0,1,0,0-7.8,3.9,3.9,0,1,0,0,7.8" transform="translate(-32.5 -25.3)"/>
      <path class="cls-1" d="M122.4,163a3.8,3.8,0,0,0,3.9,3.9,3.9,3.9,0,0,0,0-7.8,3.8,3.8,0,0,0-3.9,3.9" transform="translate(-32.5 -25.3)"/>
      <path class="cls-1" d="M131.3,163a3.9,3.9,0,0,0,3.9,3.9,3.9,3.9,0,0,0,0-7.8,3.9,3.9,0,0,0-3.9,3.9" transform="translate(-32.5 -25.3)"/>
      <path class="cls-1" d="M140.3,163a3.8,3.8,0,0,0,3.9,3.9,3.9,3.9,0,0,0,0-7.8,3.8,3.8,0,0,0-3.9,3.9" transform="translate(-32.5 -25.3)"/>
      <path class="cls-1" d="M153.1,166.9a3.9,3.9,0,1,0,0-7.8,3.9,3.9,0,1,0,0,7.8" transform="translate(-32.5 -25.3)"/>
      <path class="cls-1" d="M107.5,132.4c-1.9.6-3.9.6-5.4,1-12.2,3.1-19,12.1-23.8,22.3A54.7,54.7,0,0,0,73.2,177a59.2,59.2,0,0,0,7.9,32.4,54.3,54.3,0,0,0,13.5,15.4,57.4,57.4,0,0,0,31.1,12.1,58.1,58.1,0,0,0,43.1-14.2c10.6-9.1,17.8-22,19.1-38.5a59.3,59.3,0,0,0-3.4-24.5c-4.5-12.2-11.8-22.6-24.5-26.3-1.7-.5-4.3-.6-6.1-1.4s-3.1-4-2.2-6.2a5.3,5.3,0,0,1,5.4-3c2.2.2,3.3,2.9,4.9,4,7.5,5,17.7-1.9,16.1-10.6s-12.1-14.2-21.5-14c-5.9,0-11.2,2.1-16,5.1V96.5h20.7V75.2H140.6V53.9H119.8V75.2c-6.9,0-15.2-.1-20.9,0V96.5h20.9v10.2c-10.1-7.7-26.4-4-32.8,3.1a14.4,14.4,0,0,0-3.7,7.4c-1,8.5,8.4,14.4,15.6,10.3,2.2-1.3,3.5-3.8,5.4-4.2,6.1-1.4,8.2,7.3,3.2,9.1m42.1,79.3h0Zm-19-81.1,2.3,5.7a4.6,4.6,0,0,0-2-.5,3.9,3.9,0,0,0-2.7,1.1Zm-18,28.6a4,4,0,0,0,3.9-3.9,3.9,3.9,0,0,0-2-3.4l1.8-.8h1a4,4,0,0,0,3.9-3.2l1.2-1v.3a3.8,3.8,0,0,0,3.9,3.9,3.9,3.9,0,0,0,3.9-3.9,4,4,0,0,0-3.9-3.9h-.6L127,140a4,4,0,0,0,1.7,2.9,4.1,4.1,0,0,0,2.2.7,4,4,0,0,0,2.2-.6,4.5,4.5,0,0,0,1.6-2.2l1,2.7h-.5a4,4,0,0,0-3.9,3.9,3.9,3.9,0,0,0,3.9,3.9,3.8,3.8,0,0,0,3.9-3.9v-.2l1.2,1a4,4,0,0,0,3.9,3.1h.9l1.8.8a3.9,3.9,0,0,0-2,3.4,4,4,0,0,0,3.9,3.9,3.9,3.9,0,0,0,3.9-3.9,3.4,3.4,0,0,0-.4-1.8l1.8.3a6.1,6.1,0,0,0-.2,1.5,3.9,3.9,0,0,0,3.9,3.9,4,4,0,0,0,2.7-1.2h.1l.9,1.4h-.1a3.7,3.7,0,0,0-2.8,3.7,3.8,3.8,0,0,0,3.9,3.9,3.2,3.2,0,0,0,1.4-.3l1.2-.4.4,1a.1.1,0,0,0-.1.1.4.4,0,0,0-.1-.3,3.9,3.9,0,0,0,1.3,7.6h.7a45.5,45.5,0,0,1,.4,5.3c0,.8-.1,1.6-.1,2.4h-1a3.9,3.9,0,0,0-.4,7.8h.1a9.8,9.8,0,0,0-.5,1.6,4.1,4.1,0,0,0-2.9-1.3h-.2a4,4,0,0,0-3.9,3.9,3.9,3.9,0,0,0,3.9,3.9h.2l-1.5,2.5a6.4,6.4,0,0,0-1-1.3,4.1,4.1,0,0,0-2.6-1.1,3.9,3.9,0,0,0-3.9,4,3.9,3.9,0,0,0,1.1,2.7,3.7,3.7,0,0,0,1.9,1.1l-1.2,1.1h.1a4.3,4.3,0,0,0-2.7-1,3.9,3.9,0,0,0-3.9,3.9,4.7,4.7,0,0,0,.4,1.7,29.5,29.5,0,0,1-7.2,3.3h.2a3.9,3.9,0,0,0-2.7-1.1,3.8,3.8,0,0,0-3.7,2.6l-1.5.2a4,4,0,0,0-3.8-2.8,3.8,3.8,0,0,0-3.7,2.9l-1.5-.2a3.9,3.9,0,0,0-6.6-1.4,36,36,0,0,1-7.7-3.6,2.9,2.9,0,0,0,.4-1.6,3.8,3.8,0,0,0-3.9-3.9,3.5,3.5,0,0,0-2.5.9,5.2,5.2,0,0,1-1.1-1,3.9,3.9,0,0,0,3.2-3.8,3.9,3.9,0,0,0-3.9-4,3.9,3.9,0,0,0-3.6,2.6c-.6-.9-1.2-1.8-1.7-2.7H99a3.9,3.9,0,0,0,3.9-3.9,4,4,0,0,0-3.9-3.9,4.1,4.1,0,0,0-3.4,1.9l-.6-2.1a3.9,3.9,0,0,0,3.5-3.9,3.8,3.8,0,0,0-3.9-3.9h-1c0-.8-.1-1.6-.1-2.5a49,49,0,0,1,.4-5.4h.7a3.9,3.9,0,0,0,1.2-7.6l.5-1.2a3.7,3.7,0,0,0,2.7,1.1,3.9,3.9,0,0,0,3.9-3.9,4,4,0,0,0-3-3.8l.9-1.3a3.7,3.7,0,0,0,2.8,1.3,3.9,3.9,0,0,0,3.9-3.9,3.3,3.3,0,0,0-.3-1.5l1.9-.3a3.4,3.4,0,0,0-.4,1.8A3.9,3.9,0,0,0,112.6,159.2Z" transform="translate(-32.5 -25.3)"/>
    </g>
    <text class="cls-2" transform="translate(268.7 47.9) scale(0.98 1)">FUN<tspan class="cls-3" x="103.3" y="0">D</tspan><tspan class="cls-4" x="140.9" y="0">A</tspan><tspan x="175.3" y="0">CIÓN </tspan><tspan class="cls-5" x="312.6" y="0">A</tspan><tspan x="347.7" y="0">MIGOS DE</tspan></text>
  </g>
  <rect class="cls-1" x="229.6" y="198.9" width="8.5" height="66.64"/>
  <g>
    <path class="cls-1" d="M315.2,273.6l-9.3-29.2h7.2l3.6,12.3c1,3.5,1.9,6.8,2.6,10.5h.1c.7-3.5,1.6-7,2.6-10.4l3.8-12.4h7L323,273.6Z" transform="translate(-32.5 -25.3)"/>
    <path class="cls-1" d="M353.3,261.2H342.5v7h12.1v5.4H335.9V244.4h18v5.4H342.5v6h10.8Z" transform="translate(-32.5 -25.3)"/>
    <path class="cls-1" d="M359.1,273.6V244.4h7.7l6,10.7a70.7,70.7,0,0,1,4.8,10h.1a118.3,118.3,0,0,1-.5-12.2v-8.5h6.1v29.2h-7l-6.2-11.3A89.7,89.7,0,0,1,365,252h-.1c.1,3.9.2,8,.2,12.8v8.8Z" transform="translate(-32.5 -25.3)"/>
    <path class="cls-1" d="M406.3,261.2H395.6v7h12v5.4H389V244.4h18v5.4H395.6v6h10.7Z" transform="translate(-32.5 -25.3)"/>
    <path class="cls-1" d="M410.2,270l14-20v-.2H411.5v-5.4h21.3v3.8l-13.7,19.7v.2H433v5.5H410.2Z" transform="translate(-32.5 -25.3)"/>
    <path class="cls-1" d="M443.7,244.4v16.8c0,5,1.9,7.6,5.3,7.6s5.4-2.5,5.4-7.6V244.4H461v16.3c0,9.1-4.6,13.4-12.2,13.4s-11.7-4.1-11.7-13.4V244.4Z" transform="translate(-32.5 -25.3)"/>
    <path class="cls-1" d="M484.1,261.2H473.3v7h12v5.4H466.7V244.4h18v5.4H473.3v6h10.8Z" transform="translate(-32.5 -25.3)"/>
    <path class="cls-1" d="M489.8,244.4h6.7V268h11.6v5.6H489.8Z" transform="translate(-32.5 -25.3)"/>
    <path class="cls-1" d="M519,266.1l-2,7.5h-6.9l8.9-29.2h8.7l9.1,29.2h-7.1l-2.3-7.5Zm7.5-5-1.9-6.2c-.5-1.7-1-3.9-1.4-5.6h-.1c-.5,1.7-.9,3.9-1.4,5.6l-1.7,6.2Z" transform="translate(-32.5 -25.3)"/>
  </g>
</svg>
