<svg id="LOGO" xmlns="http://www.w3.org/2000/svg" viewBox="0 0 852.7 191.4">
  <defs>
    <style>
      .cls-1, .cls-2 {
        fill: #a0a0a0;
      }

      .cls-2 {
        font-size: 41.29px;
        font-family: MyriadPro-Regular, Myriad Pro;
        letter-spacing: 0.01em;
      }

      .cls-3 {
        letter-spacing: 0.01em;
      }

      .cls-4 {
        letter-spacing: 0.01em;
      }

      .cls-5 {
        letter-spacing: -0.07em;
      }
    </style>
  </defs>
  <title>hcsvg</title>
  <g>
    <g>
      <path class="cls-1" d="M251.6,194a34.6,34.6,0,0,0,15.1,3.8c6.3,0,9.6-2.6,9.6-6.6s-2.9-5.9-10.1-8.4c-10-3.5-16.6-9.1-16.6-17.8,0-10.3,8.6-18.2,22.8-18.2a37.1,37.1,0,0,1,15.4,3.1l-3,11a28.3,28.3,0,0,0-12.6-2.9c-5.9,0-8.8,2.7-8.8,5.8s3.4,5.5,11.2,8.5c10.6,3.9,15.6,9.5,15.6,18,0,10.1-7.8,18.6-24.3,18.6-6.9,0-13.7-1.7-17.1-3.6Z" transform="translate(-52.2 -89)"/>
      <path class="cls-1" d="M322.5,187.4c-7.2-.1-12.7,1.6-12.7,6.9,0,3.5,2.3,5.2,5.4,5.2a7.4,7.4,0,0,0,7-5,9.3,9.3,0,0,0,.3-2.4Zm1.6,20.7-.8-4.4H323c-2.8,3.5-7.3,5.3-12.5,5.3-8.8,0-14.1-6.4-14.1-13.4,0-11.3,10.2-16.8,25.6-16.7v-.6c0-2.3-1.2-5.6-7.9-5.6A24.6,24.6,0,0,0,302,176l-2.5-8.8a36.3,36.3,0,0,1,17-3.8c14.6,0,19.2,8.5,19.2,18.8v15.2a76.4,76.4,0,0,0,.6,10.7Z" transform="translate(-52.2 -89)"/>
      <path class="cls-1" d="M346,178.3c0-5.5-.2-10.1-.4-14h11.8l.7,6h.2a16.2,16.2,0,0,1,13.5-6.9c9,0,15.7,5.9,15.7,18.7v26H373.9V183.8c0-5.6-2-9.4-6.9-9.4a7.3,7.3,0,0,0-6.9,5,11.6,11.6,0,0,0-.5,3.4v25.3H346Z" transform="translate(-52.2 -89)"/>
      <path class="cls-1" d="M427.8,147.8h13.6v38.1c0,17.1-8.2,23.1-21.5,23.1a35.3,35.3,0,0,1-9.9-1.4l1.5-11a23.4,23.4,0,0,0,7,1.1c5.7,0,9.3-2.6,9.3-12Z" transform="translate(-52.2 -89)"/>
      <path class="cls-1" d="M493.1,194q0,8.5.3,14.1H481.6l-.6-6.2h-.3c-1.7,2.7-5.8,7.1-13.7,7.1s-15.3-5.5-15.3-19V164.3h13.7v23.5c0,6.4,2,10.2,6.7,10.2a7.3,7.3,0,0,0,6.8-4.7,6.8,6.8,0,0,0,.5-2.9V164.3h13.7Z" transform="translate(-52.2 -89)"/>
      <path class="cls-1" d="M526.8,187.4c-7.2-.1-12.7,1.6-12.7,6.9,0,3.5,2.3,5.2,5.3,5.2a7.6,7.6,0,0,0,7.1-5,9.3,9.3,0,0,0,.3-2.4Zm1.6,20.7-.8-4.4h-.3c-2.9,3.5-7.3,5.3-12.5,5.3-8.9,0-14.1-6.4-14.1-13.4,0-11.3,10.2-16.8,25.6-16.7v-.6c0-2.3-1.2-5.6-7.9-5.6a24.6,24.6,0,0,0-12.1,3.3l-2.5-8.8c3-1.7,9-3.8,17-3.8,14.5,0,19.2,8.5,19.2,18.8v15.2a76.4,76.4,0,0,0,.6,10.7Z" transform="translate(-52.2 -89)"/>
      <path class="cls-1" d="M550.3,178.3c0-5.5-.2-10.1-.4-14h11.8l.7,6h.2a16.2,16.2,0,0,1,13.5-6.9c9,0,15.7,5.9,15.7,18.7v26H578.2V183.8c0-5.6-2-9.4-6.9-9.4a7.2,7.2,0,0,0-6.9,5,11.6,11.6,0,0,0-.5,3.4v25.3H550.3Z" transform="translate(-52.2 -89)"/>
      <path class="cls-1" d="M648.6,182.8a19.4,19.4,0,0,0-.2-2.4,8.2,8.2,0,0,0-7.9-6.7c-6.2,0-9.4,5.6-9.4,12.5s3.7,12,9.3,12a8,8,0,0,0,7.9-6.5,15.5,15.5,0,0,0,.3-3.1Zm13.6-38.2V195c0,4.9.2,10.1.4,13H650.5l-.6-6.4h-.2c-2.8,4.9-8.1,7.4-13.7,7.4-10.4,0-18.7-8.8-18.7-22.4s9.2-23.2,19.6-23.2c5.4,0,9.6,1.8,11.5,4.9h.2V144.6Z" transform="translate(-52.2 -89)"/>
      <path class="cls-1" d="M699.1,181.2c0-3.3-1.4-8.8-7.7-8.8s-8,5.2-8.4,8.8Zm-16,9.3c.5,5.7,6,8.3,12.4,8.3a40,40,0,0,0,12-1.7l1.8,9.2a42.6,42.6,0,0,1-15.8,2.6c-14.8,0-23.3-8.5-23.3-22.2,0-11.1,6.9-23.3,22.1-23.3s19.4,11,19.4,21.8a30.7,30.7,0,0,1-.4,5.3Z" transform="translate(-52.2 -89)"/>
      <path class="cls-1" d="M751.2,197.8a32.5,32.5,0,0,0,4.7.2c12.3.1,20.4-6.7,20.4-21.1.1-12.5-7.3-19.1-19-19.1a24.6,24.6,0,0,0-6.1.6Zm-13.7-49.2a122.4,122.4,0,0,1,18.4-1.2c11.4,0,18.9,2,24.7,6.4s10.2,12.1,10.2,22.7-4.2,19.5-10,24.4-16,7.8-27.8,7.8a126.9,126.9,0,0,1-15.5-.9Z" transform="translate(-52.2 -89)"/>
      <path class="cls-1" d="M799.2,164.3h13.6v43.8H799.2Zm14-12.1c0,3.7-2.8,6.8-7.3,6.8s-7.2-3.1-7.1-6.8,2.8-6.9,7.2-6.9a6.8,6.8,0,0,1,7.2,6.9" transform="translate(-52.2 -89)"/>
      <path class="cls-1" d="M834.8,186.2c0,7.5,3.1,13.1,8.9,13.1s8.7-5.3,8.7-13.1-2.5-13.2-8.7-13.2-8.9,6.7-8.9,13.2m31.6-.5c0,16-11.4,23.3-23.1,23.3s-22.6-8.4-22.6-22.5,9.3-23.1,23.4-23.1,22.3,9.2,22.3,22.3" transform="translate(-52.2 -89)"/>
      <path class="cls-1" d="M874.3,196.2a26.9,26.9,0,0,0,11.7,3.3c4.1,0,5.8-1.5,5.8-3.7s-1.3-3.3-6.4-5c-9.1-3-12.6-8-12.5-13.1,0-8.2,7-14.3,17.8-14.3a28.8,28.8,0,0,1,12.4,2.5l-2.5,9.3a22.1,22.1,0,0,0-9.4-2.5c-3.3,0-5.2,1.4-5.2,3.6s1.7,3.1,7,5c8.4,2.9,11.8,7.1,11.9,13.5,0,8.2-6.4,14.1-18.9,14.1-5.7,0-10.8-1.2-14.1-3Z" transform="translate(-52.2 -89)"/>
      <rect class="cls-1" x="167.5" y="0.3" width="6.1" height="143.43"/>
      <path class="cls-1" d="M168.8,224.4c-.6,1.2-.8,2.6-1.4,3.9a8.3,8.3,0,0,1-6.8,4.7c1.4-2.4,3.6-4.7,5.1-7.4a45.9,45.9,0,0,0,3.8-9c2.5-2.7,5.8-3.8,8.9-5.3,5.8-2.9,10.5-7.6,12.4-14.3.9-3.1.7-6.8,2.5-9.9.7-1.2,1.8-2,2.5-3.4-5.6.2-9.4,2.3-13,4.5-4.7,3.8-8.7,8.8-9.7,16.3-.3,2.2-.1,5.4-2,6.4a62.8,62.8,0,0,0,.4-17.3,21.6,21.6,0,0,0,9.4-10.4c.8-2.1.9-4.2,1.6-6.6a27.5,27.5,0,0,1,6.3-10.6,20.1,20.1,0,0,0-22.2,14.2,18,18,0,0,0-.9,4.5c-.2,3.3.8,5.8,1.4,8.1,1.9,7.6.8,15.7-1.2,22.3a42.3,42.3,0,0,1-9.4,16.2,43.3,43.3,0,0,1-36.6,14c-15.2-1.5-25.7-8.9-32.4-18.8a43.9,43.9,0,0,1-7-30.6c.5-3.2,2.2-6.9,1.8-11.1a20.7,20.7,0,0,0-7.4-14A19.9,19.9,0,0,0,59,166.2c.8,1.1,1.7,2,2.5,3a27.5,27.5,0,0,1,3.7,7.7c.4,1.4.6,2.9,1.1,4.5a19.8,19.8,0,0,0,6.9,10.2c1.1.9,3.2,1.7,3.4,2.5s-.3,3.1-.4,4.4a45.2,45.2,0,0,0,.9,12.9c-2.3-1.5-1.8-4.5-2.1-6.7a26.3,26.3,0,0,0-2.1-6.7c-3.6-7.7-10.4-12.9-20.7-14,.9,1.6,1.7,2.3,2.5,3.6,1.9,3.4,1.6,7.3,2.7,10.7a21.8,21.8,0,0,0,13,13.7c2.7,1.1,7.1,3,8.3,5.2s1,3.2,1.7,4.6a50.8,50.8,0,0,0,4.6,8c.9,1.2,2.1,2.3,2.5,3.6a8.4,8.4,0,0,1-6.1-3.7c-1.3-1.8-1.6-4.2-2.7-6.2a18.1,18.1,0,0,0-2.9-4.1,20.8,20.8,0,0,0-3.5-2.9c-5.6-3.3-15.3-3.5-20,1.2,4.6,2.2,8.5,4.6,11.3,8.5.8,1.1,1.2,2.1,2,3,4.7,5.6,14.4,10.6,24.1,6.4a49.3,49.3,0,0,0,14.5,9.8,44.5,44.5,0,0,0,19.9,4.2c15.3-.6,26.3-6.4,34.4-14.3a21.5,21.5,0,0,0,10.7,1.3,21.3,21.3,0,0,0,13.8-8.3c.9-1.3,1.5-2.4,2.4-3.5a23.2,23.2,0,0,1,6.4-5.7c1.2-.7,2.8-.9,4-2.1a16.1,16.1,0,0,0-9.4-3.5c-8.9-.5-14.9,4.9-17.6,10.9" transform="translate(-52.2 -89)"/>
      <path class="cls-1" d="M113.8,218.2a2.9,2.9,0,0,0-5.8,0,2.9,2.9,0,0,0,5.8,0" transform="translate(-52.2 -89)"/>
      <path class="cls-1" d="M120.7,218.2a2.9,2.9,0,0,0-5.8,0,2.9,2.9,0,0,0,5.8,0" transform="translate(-52.2 -89)"/>
      <path class="cls-1" d="M127.2,218.2a2.9,2.9,0,1,0-5.7,0,2.9,2.9,0,0,0,5.7,0" transform="translate(-52.2 -89)"/>
      <path class="cls-1" d="M133.8,218.2a2.9,2.9,0,0,0-5.8,0,2.9,2.9,0,0,0,5.8,0" transform="translate(-52.2 -89)"/>
      <path class="cls-1" d="M137.5,215.3a2.9,2.9,0,0,0-2.9,2.9,2.9,2.9,0,0,0,5.7,0,2.9,2.9,0,0,0-2.8-2.9" transform="translate(-52.2 -89)"/>
      <path class="cls-1" d="M107.2,206.5a2.9,2.9,0,1,0-5.7,0,2.9,2.9,0,0,0,5.7,0" transform="translate(-52.2 -89)"/>
      <path class="cls-1" d="M108,206.5a2.9,2.9,0,0,0,5.8,0,2.9,2.9,0,1,0-5.8,0" transform="translate(-52.2 -89)"/>
      <path class="cls-1" d="M120.7,206.5a2.9,2.9,0,0,0-5.8,0,2.9,2.9,0,0,0,5.8,0" transform="translate(-52.2 -89)"/>
      <path class="cls-1" d="M127.2,206.5a2.9,2.9,0,1,0-5.7,0,2.9,2.9,0,0,0,5.7,0" transform="translate(-52.2 -89)"/>
      <path class="cls-1" d="M133.8,206.5a2.9,2.9,0,0,0-5.8,0,2.9,2.9,0,0,0,5.8,0" transform="translate(-52.2 -89)"/>
      <path class="cls-1" d="M134.6,206.5a2.9,2.9,0,0,0,5.7,0,2.9,2.9,0,1,0-5.7,0" transform="translate(-52.2 -89)"/>
      <path class="cls-1" d="M144,203.6a2.9,2.9,0,0,0-2.9,2.9,2.9,2.9,0,0,0,5.8,0,2.9,2.9,0,0,0-2.9-2.9" transform="translate(-52.2 -89)"/>
      <path class="cls-1" d="M104.3,198a2.9,2.9,0,1,0,0-5.7,2.9,2.9,0,0,0,0,5.7" transform="translate(-52.2 -89)"/>
      <path class="cls-1" d="M108,195.1a2.9,2.9,0,1,0,2.9-2.8,2.9,2.9,0,0,0-2.9,2.8" transform="translate(-52.2 -89)"/>
      <path class="cls-1" d="M117.8,192.3a2.9,2.9,0,1,0,2.9,2.8,2.9,2.9,0,0,0-2.9-2.8" transform="translate(-52.2 -89)"/>
      <path class="cls-1" d="M124.3,192.3a2.9,2.9,0,0,0,0,5.7,2.9,2.9,0,1,0,0-5.7" transform="translate(-52.2 -89)"/>
      <path class="cls-1" d="M130.9,192.3a2.9,2.9,0,1,0,2.9,2.8,2.9,2.9,0,0,0-2.9-2.8" transform="translate(-52.2 -89)"/>
      <path class="cls-1" d="M134.6,195.1a2.9,2.9,0,1,0,5.7,0,2.9,2.9,0,0,0-5.7,0" transform="translate(-52.2 -89)"/>
      <path class="cls-1" d="M141.1,195.1a2.9,2.9,0,1,0,2.9-2.8,2.9,2.9,0,0,0-2.9,2.8" transform="translate(-52.2 -89)"/>
      <path class="cls-1" d="M117.8,186.7a2.9,2.9,0,0,0,2.9-2.9,2.9,2.9,0,0,0-5.8,0,2.9,2.9,0,0,0,2.9,2.9" transform="translate(-52.2 -89)"/>
      <path class="cls-1" d="M124.3,186.7a2.9,2.9,0,0,0,2.9-2.9,2.9,2.9,0,0,0-5.7,0,2.9,2.9,0,0,0,2.8,2.9" transform="translate(-52.2 -89)"/>
      <path class="cls-1" d="M130.9,186.7a2.9,2.9,0,0,0,2.9-2.9,2.9,2.9,0,0,0-5.8,0,2.9,2.9,0,0,0,2.9,2.9" transform="translate(-52.2 -89)"/>
      <path class="cls-1" d="M114.4,221.1a2.8,2.8,0,0,0-2.9,2.8,2.9,2.9,0,0,0,2.9,2.9,2.8,2.8,0,0,0,2.8-2.9,2.7,2.7,0,0,0-2.8-2.8" transform="translate(-52.2 -89)"/>
      <path class="cls-1" d="M120.9,221.1a2.8,2.8,0,0,0-2.8,2.8,2.9,2.9,0,1,0,5.7,0,2.8,2.8,0,0,0-2.9-2.8" transform="translate(-52.2 -89)"/>
      <path class="cls-1" d="M127.5,221.1a2.8,2.8,0,0,0-2.9,2.8,2.9,2.9,0,1,0,5.8,0,2.8,2.8,0,0,0-2.9-2.8" transform="translate(-52.2 -89)"/>
      <path class="cls-1" d="M134,221.1a2.8,2.8,0,0,0-2.8,2.8,2.9,2.9,0,1,0,5.7,0,2.8,2.8,0,0,0-2.9-2.8" transform="translate(-52.2 -89)"/>
      <path class="cls-1" d="M110.4,212.4a2.9,2.9,0,1,0-2.9,2.8,2.9,2.9,0,0,0,2.9-2.8" transform="translate(-52.2 -89)"/>
      <path class="cls-1" d="M111.5,212.4a2.9,2.9,0,0,0,2.9,2.8,2.9,2.9,0,0,0,0-5.7,2.9,2.9,0,0,0-2.9,2.9" transform="translate(-52.2 -89)"/>
      <path class="cls-1" d="M120.9,215.2a2.9,2.9,0,1,0-2.8-2.8,2.9,2.9,0,0,0,2.8,2.8" transform="translate(-52.2 -89)"/>
      <path class="cls-1" d="M127.5,215.2a2.9,2.9,0,1,0-2.9-2.8,2.9,2.9,0,0,0,2.9,2.8" transform="translate(-52.2 -89)"/>
      <path class="cls-1" d="M134,215.2a2.9,2.9,0,1,0-2.8-2.8,2.9,2.9,0,0,0,2.8,2.8" transform="translate(-52.2 -89)"/>
      <path class="cls-1" d="M140.6,209.5a2.9,2.9,0,1,0,2.9,2.9,2.9,2.9,0,0,0-2.9-2.9" transform="translate(-52.2 -89)"/>
      <path class="cls-1" d="M103.8,201a2.9,2.9,0,1,0-5.7,0,2.9,2.9,0,0,0,5.7,0" transform="translate(-52.2 -89)"/>
      <path class="cls-1" d="M107.5,198.1a2.9,2.9,0,0,0-2.9,2.9,2.9,2.9,0,0,0,5.8,0,2.9,2.9,0,0,0-2.9-2.9" transform="translate(-52.2 -89)"/>
      <path class="cls-1" d="M111.5,201a2.8,2.8,0,0,0,2.9,2.8,2.7,2.7,0,0,0,2.8-2.8,2.8,2.8,0,0,0-2.8-2.9,2.9,2.9,0,0,0-2.9,2.9" transform="translate(-52.2 -89)"/>
      <path class="cls-1" d="M118.1,201a2.9,2.9,0,0,0,5.7,0,2.9,2.9,0,1,0-5.7,0" transform="translate(-52.2 -89)"/>
      <path class="cls-1" d="M124.6,201a2.9,2.9,0,0,0,5.8,0,2.9,2.9,0,0,0-5.8,0" transform="translate(-52.2 -89)"/>
      <path class="cls-1" d="M134,198.1a2.9,2.9,0,0,0-2.8,2.9,2.9,2.9,0,0,0,5.7,0,2.9,2.9,0,0,0-2.9-2.9" transform="translate(-52.2 -89)"/>
      <path class="cls-1" d="M143.5,201a2.9,2.9,0,0,0-5.8,0,2.9,2.9,0,0,0,5.8,0" transform="translate(-52.2 -89)"/>
      <path class="cls-1" d="M144.6,201a2.9,2.9,0,0,0,5.7,0,2.9,2.9,0,1,0-5.7,0" transform="translate(-52.2 -89)"/>
      <path class="cls-1" d="M104.6,189.5a2.9,2.9,0,1,0,2.9-2.9,2.9,2.9,0,0,0-2.9,2.9" transform="translate(-52.2 -89)"/>
      <path class="cls-1" d="M114.4,192.4a2.9,2.9,0,0,0,0-5.8,2.9,2.9,0,1,0,0,5.8" transform="translate(-52.2 -89)"/>
      <path class="cls-1" d="M118.1,189.5a2.9,2.9,0,1,0,2.8-2.9,2.9,2.9,0,0,0-2.8,2.9" transform="translate(-52.2 -89)"/>
      <path class="cls-1" d="M124.6,189.5a2.9,2.9,0,1,0,2.9-2.9,2.9,2.9,0,0,0-2.9,2.9" transform="translate(-52.2 -89)"/>
      <path class="cls-1" d="M131.2,189.5a2.9,2.9,0,1,0,2.8-2.9,2.9,2.9,0,0,0-2.8,2.9" transform="translate(-52.2 -89)"/>
      <path class="cls-1" d="M140.6,192.4a2.9,2.9,0,1,0-2.9-2.9,2.9,2.9,0,0,0,2.9,2.9" transform="translate(-52.2 -89)"/>
      <path class="cls-1" d="M107.2,167a40.3,40.3,0,0,1-4,.8c-8.9,2.3-13.9,8.8-17.5,16.3A41.1,41.1,0,0,0,82,199.7a43.9,43.9,0,0,0,5.8,23.8,39.7,39.7,0,0,0,9.9,11.2,41.9,41.9,0,0,0,22.8,9,42.9,42.9,0,0,0,31.6-10.4,40.9,40.9,0,0,0,14-28.3,43.7,43.7,0,0,0-2.5-17.9c-3.3-9-8.7-16.6-18-19.3-1.2-.4-3.1-.5-4.4-1a3.6,3.6,0,0,1-1.6-4.6,3.8,3.8,0,0,1,3.9-2.2c1.7.1,2.4,2.2,3.6,3,5.5,3.6,13-1.4,11.8-7.8s-8.8-10.4-15.7-10.3a23.6,23.6,0,0,0-11.8,3.8v-8h15.2V125.1H131.4V109.5H116.2v15.6H100.8v15.6h15.4v7.6c-7.4-5.7-19.4-3-24,2.2a9.9,9.9,0,0,0-2.7,5.4,7.7,7.7,0,0,0,11.3,7.6c1.7-1,2.6-2.8,4-3.1,4.5-1.1,6,5.3,2.4,6.6M138,225.2h0Zm-13.9-59.4,1.7,4.1a3.3,3.3,0,0,0-1.5-.3,2.7,2.7,0,0,0-1.9.8Zm-13.2,20.9a2.9,2.9,0,0,0,2.9-2.9,2.7,2.7,0,0,0-1.5-2.4l1.4-.6h.7a2.9,2.9,0,0,0,2.8-2.4l.9-.7v.2a2.9,2.9,0,1,0,2.8-2.9h-.4l1-2.6a2.8,2.8,0,0,0,2.8,2.7,3,3,0,0,0,2.8-2.1l.8,2h-.4a2.9,2.9,0,1,0,2.9,2.9v-.2l.9.8a3,3,0,0,0,2.8,2.3h.7l1.3.5a3.1,3.1,0,0,0-1.4,2.5,2.9,2.9,0,1,0,5.7,0,2.8,2.8,0,0,0-.3-1.3l1.4.2a2.3,2.3,0,0,0-.3,1.1,2.9,2.9,0,0,0,2.9,2.9,2.8,2.8,0,0,0,2-.8h.1l.7,1h-.2a2.8,2.8,0,0,0-2,2.7,2.9,2.9,0,0,0,2.9,2.9,1.9,1.9,0,0,0,1-.3l.9-.3.3.8h-.1v-.2a2.9,2.9,0,0,0,.9,5.6h.5a25.6,25.6,0,0,1,.3,3.9c0,.6-.1,1.2-.1,1.7h-.7a2.9,2.9,0,0,0-2.9,2.9,2.8,2.8,0,0,0,2.6,2.8h0l-.3,1.2a3,3,0,0,0-2.1-1h-.2a2.9,2.9,0,0,0,0,5.7h.2a17.4,17.4,0,0,0-1.1,1.8l-.7-.9a2.8,2.8,0,0,0-2-.8,2.8,2.8,0,0,0-2,4.9,2.5,2.5,0,0,0,1.4.8l-.9.8h0a2.6,2.6,0,0,0-1.9-.7,2.8,2.8,0,0,0-2.9,2.8,5,5,0,0,0,.3,1.3,24.5,24.5,0,0,1-5.2,2.4h.1a2.8,2.8,0,0,0-2-.8,2.8,2.8,0,0,0-2.7,1.9l-1.1.2a2.8,2.8,0,0,0-2.8-2.1,2.8,2.8,0,0,0-2.7,2.1h-1.1a2.9,2.9,0,0,0-4.8-1.1,22,22,0,0,1-5.6-2.6,3.5,3.5,0,0,0,.3-1.2,2.8,2.8,0,0,0-2.9-2.8,2.6,2.6,0,0,0-1.9.7l-.8-.8a2.8,2.8,0,0,0,2.4-2.8,2.9,2.9,0,0,0-2.9-2.9,2.8,2.8,0,0,0-2.6,1.9l-1.3-2h.5a2.9,2.9,0,1,0-2.4-4.3,7.5,7.5,0,0,1-.5-1.6,2.8,2.8,0,0,0,2.6-2.8,2.9,2.9,0,0,0-2.9-2.9H97c0-.6-.1-1.2-.1-1.8a26,26,0,0,1,.3-4h.5a2.9,2.9,0,0,0,.9-5.6c.1-.3.3-.5.4-.8a2.7,2.7,0,0,0,1.9.8,2.9,2.9,0,0,0,2.9-2.9,2.8,2.8,0,0,0-2.2-2.8l.7-.9a2.8,2.8,0,0,0,4.9-2,4.3,4.3,0,0,0-.2-1.1l1.4-.2a3.3,3.3,0,0,0-.4,1.3A2.9,2.9,0,0,0,110.9,186.7Z" transform="translate(-52.2 -89)"/>
      <text class="cls-2" transform="translate(195.8 34.6) scale(0.98 1)">HOGAR CLÍNI<tspan class="cls-3" x="230.9" y="0">C</tspan><tspan x="255.2" y="0">A SAN </tspan><tspan class="cls-4" x="372" y="0">R</tspan><tspan x="394.7" y="0">A</tspan><tspan class="cls-5" x="420.2" y="0">F</tspan><tspan x="437.3" y="0">AEL</tspan></text>
    </g>
    <rect class="cls-1" x="167.5" y="143.6" width="6.1" height="47.72"/>
    <g>
      <path class="cls-1" d="M258.1,267.9l-6.7-20.8h5.1l2.6,8.8c.7,2.5,1.3,4.9,1.8,7.5h.1c.6-2.5,1.2-5,1.9-7.4l2.7-8.9h5l-7,20.8Z" transform="translate(-52.2 -89)"/>
      <path class="cls-1" d="M285.2,259.1h-7.7v5h8.6v3.8H272.8V247.1h12.9V251h-8.2v4.3h7.7Z" transform="translate(-52.2 -89)"/>
      <path class="cls-1" d="M289.3,267.9V247.1h5.5l4.3,7.6a47.4,47.4,0,0,1,3.4,7.2h.1a80.7,80.7,0,0,1-.4-8.7v-6.1h4.3v20.8h-4.9l-4.5-8a72.6,72.6,0,0,1-3.6-7.4h-.1c.2,2.7.2,5.7.2,9.1v6.2Z" transform="translate(-52.2 -89)"/>
      <path class="cls-1" d="M323,259.1h-7.7v5h8.6v3.8H310.6V247.1h12.9V251h-8.2v4.3H323Z" transform="translate(-52.2 -89)"/>
      <path class="cls-1" d="M325.8,265.4l9.9-14.3h-9v-3.9h15.1v2.7l-9.7,14.1H342v3.9H325.8Z" transform="translate(-52.2 -89)"/>
      <path class="cls-1" d="M349.6,247.1v12c0,3.6,1.4,5.4,3.8,5.4s3.8-1.7,3.8-5.4v-12h4.7v11.7c0,6.4-3.2,9.5-8.6,9.5s-8.4-2.9-8.4-9.6V247.1Z" transform="translate(-52.2 -89)"/>
      <path class="cls-1" d="M378.4,259.1h-7.7v5h8.6v3.8H366V247.1h12.9V251h-8.2v4.3h7.7Z" transform="translate(-52.2 -89)"/>
      <path class="cls-1" d="M382.5,247.1h4.7V264h8.3v3.9h-13Z" transform="translate(-52.2 -89)"/>
      <path class="cls-1" d="M403.3,262.6l-1.4,5.3H397l6.3-20.8h6.2l6.5,20.8h-5.1l-1.6-5.3Zm5.3-3.5-1.3-4.5-1-4h-.1c-.3,1.3-.6,2.8-1,4l-1.2,4.5Z" transform="translate(-52.2 -89)"/>
    </g>
  </g>
</svg>
