<svg id="Capa_1" data-name="Capa 1" xmlns="http://www.w3.org/2000/svg" viewBox="0 0 108.6 43.3">
  <defs>
    <style>
      .cls-1 {
        fill: #fff;
      }

      .cls-2, .cls-3 {
        fill: #cb2328;
      }

      .cls-3 {
        fill-rule: evenodd;
      }

      .cls-4 {
        fill: none;
        stroke: #cb2328;
        stroke-miterlimit: 22.93;
        stroke-width: 0.17px;
      }
    </style>
  </defs>
  <title>tel</title>
  <path class="cls-1" d="M1628.3-489.5a14.6,14.6,0,0,1-8.8,5.6,14.4,14.4,0,0,1,5.5-8.8,14.7,14.7,0,0,0-8.6-2.8,15,15,0,0,0-8.6,2.8,14.5,14.5,0,0,1,5.5,8.7,14,14,0,0,1-8.5-5.7,14.5,14.5,0,0,0-3,8.9,14.4,14.4,0,0,0,3,8.8,14.5,14.5,0,0,1,8.5-5.7,14.5,14.5,0,0,1-5.7,8.5,14.4,14.4,0,0,0,8.8,3,14.2,14.2,0,0,0,8.8-3,14.2,14.2,0,0,1-5.6-8.6,15.1,15.1,0,0,1,8.7,5.6,15.2,15.2,0,0,0,2.8-8.6,15.3,15.3,0,0,0-2.8-8.7" transform="translate(-1522.9 497.2)"/>
  <path class="cls-2" d="M1627.9-489.2l.4-.3Zm-11.5,22.6a14.3,14.3,0,0,0,8.2-2.6,14.8,14.8,0,0,1-5.4-8.5l-.2-.6h.7a15,15,0,0,1,8.5,5.3,13.7,13.7,0,0,0,2.5-7.9,13.8,13.8,0,0,0-2.5-8,14.4,14.4,0,0,1-8.6,5.3h-.6v-.6a15,15,0,0,1,5.3-8.7,14.5,14.5,0,0,0-8-2.4,14.4,14.4,0,0,0-7.9,2.4,15.4,15.4,0,0,1,5.2,8.6l.2.6h-.6a14.8,14.8,0,0,1-8.5-5.4,14.3,14.3,0,0,0-2.6,8.2,14.2,14.2,0,0,0,2.6,8.1,14.6,14.6,0,0,1,8.4-5.4h.6v.6a14.9,14.9,0,0,1-5.4,8.4,14.2,14.2,0,0,0,8.1,2.6m0,.8a14.8,14.8,0,0,1-9-3l-.5-.4.5-.3a14.3,14.3,0,0,0,5.3-7.6,14.3,14.3,0,0,0-7.6,5.3l-.3.5-.4-.5a14.8,14.8,0,0,1-3-9,15.1,15.1,0,0,1,3-9.1l.4-.4.3.4a13.9,13.9,0,0,0,7.7,5.3,14.8,14.8,0,0,0-5.2-7.8l-.5-.3.5-.3a15,15,0,0,1,8.8-2.9,15.3,15.3,0,0,1,8.9,2.9l.4.3-.4.3a14.2,14.2,0,0,0-5.2,7.9,13.9,13.9,0,0,0,7.8-5.2l.4-.4.3.4a15,15,0,0,1,2.9,8.9,15,15,0,0,1-2.9,8.8l-.3.4-.4-.4a14.1,14.1,0,0,0-7.8-5.2,14.6,14.6,0,0,0,5.4,7.7l.4.3-.4.4a15.1,15.1,0,0,1-9.1,3Z" transform="translate(-1522.9 497.2)"/>
  <path class="cls-2" d="M1604.8-472a14.5,14.5,0,0,1,8.5-5.7,14.5,14.5,0,0,1-5.7,8.5,14.4,14.4,0,0,0,8.8,3,14.2,14.2,0,0,0,8.8-3,14.2,14.2,0,0,1-5.6-8.6,15.1,15.1,0,0,1,8.7,5.6,15.2,15.2,0,0,0,2.8-8.6v-.4h-29.3v.4a14.4,14.4,0,0,0,3,8.8" transform="translate(-1522.9 497.2)"/>
  <path class="cls-3" d="M1580-485.9c-.6-2.1-3-.9-3.1.5s1.4,2.7,1.9,4.3c.8-.6,3.8-2.2,4.1-3.4s-1.6-2.4-2.9-1.4" transform="translate(-1522.9 497.2)"/>
  <path class="cls-4" d="M1580-485.9c-.6-2.1-3-.9-3.1.5s1.4,2.7,1.9,4.3c.8-.6,3.8-2.2,4.1-3.4S1581.3-486.9,1580-485.9Z" transform="translate(-1522.9 497.2)"/>
  <path d="M1578.9-471.9c-.6,2.4-2.2,5.8-4.2,5.3s-2.6-1-2.3-4.2a31.4,31.4,0,0,1,.8-3.6c.7-1.7,2-3.3,3.6-3.3s2.6,3.8,2.1,5.8m-1.9-6.6a6.2,6.2,0,0,0-4.4,1.5,8,8,0,0,0-3.1,6.2,1.4,1.4,0,0,0,0,.9h0c-.7.8-1.7,2.8-2.5,2.8s-1.1.4-.7-2.3c.1-1.1,1-4.8,1.6-7.3.1,0,.2-.5.3-.5h2.6v-1h-2.5a8.9,8.9,0,0,1,.2-1.5l.5-1.6h-2.8c-.4,0-.4,1.6-.6,2.9s0,.2-.3.2h-2v.8h1.8c-.4,2.5-1.9,7.2-2,8.4s.7,2.8,1.7,2.9,2.9-.1,4.7-2.4l.3-.5h0a5.4,5.4,0,0,0,4.7,3.2,5.7,5.7,0,0,0,3.6-.8,8.6,8.6,0,0,0,4.2-7.6c0-2.6-2.5-4.4-5.3-4.4m19.1,8.1c-.7,1.6-2.2,3.4-2.5,3.4s-1.2,0-.7-1.6,1.1-3.7,1.6-5.9-.1-3.3-1.4-3.7a3.9,3.9,0,0,0-2.8.2,5.5,5.5,0,0,0-2.8,2.4h-.3a.8.8,0,0,1,0-.7c.5-1.3.7-1.8.3-1.8h-5.2v.5h1.8c.4,0-.8,5-.9,5.7a56.2,56.2,0,0,1-1.3,5.7h3.2c-.2-.6.4-2,.7-3.3a30.9,30.9,0,0,1,1.4-4.9c1.5-2.3,2.8-2.9,3.6-2.9s1.2.1.8,1.9-1.1,3.6-1.5,6.1.6,3.6,1.8,3.7,2.6-.1,4.3-3.2a8.8,8.8,0,0,0,.5-1.5h-.6m-40.1-4.8c.8-1.8,2.2-2.5,3.1-2.4s1.8,1,1.8,2a3.3,3.3,0,0,1-2.2,3.2c-.5.3-2.3.2-3.5.3a9.9,9.9,0,0,1,.8-3.1m6.3,5.4c-1.8,2.1-2.8,2.8-3.9,3.1s-4.5-.5-3.4-4.6h4.2a3.8,3.8,0,0,0,2.7-1,3.2,3.2,0,0,0,.9-4.2,4,4,0,0,0-3.6-1.9,7.5,7.5,0,0,0-4.5,1.6c-1.5,1.4-3.2,3.1-3.2,6.1a4.8,4.8,0,0,0,3.8,4.8,6.5,6.5,0,0,0,6.7-2.1l.6-.8a1.2,1.2,0,0,0-.3-.9m-24.9-3.2a9.2,9.2,0,0,1,.8-2.5c.9-1.7,2.3-2.5,3.9-2.1a2.4,2.4,0,0,1,1.1,2.5,3.2,3.2,0,0,1-2.2,2.7,23.4,23.4,0,0,1-3.8.3,5.1,5.1,0,0,1,.2-.9m7.3,3.5h-.7c-1.7,1.9-3.5,2.9-4.7,2.9s-2.7-.9-2.7-2.5c0-.1.2-2.1.5-2.3h2.3a7.3,7.3,0,0,0,3.3-.4c2.1-.9,2.5-1.7,2.6-3.3s-1.4-3.1-2.9-3.3a6.8,6.8,0,0,0-4.6.8c-1.6,1-4.6,3.7-4.3,7.2s1.8,4.3,5.4,4.6a5.5,5.5,0,0,0,5.7-3.3c.2-.3.3-.3.1-.4m-12.8,2.6c-.7,0-1.3.2-1.3-.4.2-2.3,2.9-12.5,3.5-16.5l.3-1.9h2.5c.4,0,1.6.5,1.7,1.2s.5,3.1.6,4.4.8.2.9.1c.1-2,.3-1.9.3-3.4a20.3,20.3,0,0,0,.4-2.9h-16.2c-.1,0-.4.2-.4.3s-1.1,4.1-1.3,5.5.9.4,1,.2,1.9-3.3,2.5-4a3.6,3.6,0,0,1,2-1.5h2.4c.1,0,0,1,0,1.1-.6,3.5-2.7,11.9-3.3,15.2-.3,1.5-.5,2.6-.8,2.6h-2.5v.8h9.3v-.7Zm19.7-2.8c-1,1.9-2.8,3-3.2,2.7s.1-2.2.1-2.7c.2-2.1,3.1-11.9,3.8-16.3v-.9h-5.3c-.4,0-.4.8-.1.9h2.1c.2,0-.5,2.5-.6,2.9-.4,3.3-2.7,11-3.2,14.2s.4,2.9,1.2,3.1a4.1,4.1,0,0,0,4.5-1.7c.2-.2,1-1,.9-1.2s-.4-1-.3-1.1" transform="translate(-1522.9 497.2)"/>
  <path d="M1526.4-495.4h2.9c-.1.1-.1.3-.2.5h-1.7a2.4,2.4,0,0,1-.2.8.6.6,0,0,1-.1.4c0,.2-.1.3-.1.4h1.7c0,.1-.1.2-.1.3v.3h-1.7l-.2.9-.3,1.6h-1.3c0-.1.1-.2.1-.3v-.2a5.1,5.1,0,0,0,.4-1.4,5.3,5.3,0,0,1,.3-1.1c0-.1.1-.2.1-.4a4.3,4.3,0,0,0,.1-.5,3.5,3.5,0,0,0,.1-.6,2.1,2.1,0,0,0,.1-.6Z" transform="translate(-1522.9 497.2)"/>
  <path d="M1534.5-494.3c0,.2,0,.3-.1.4s0,.3-.1.4a1.6,1.6,0,0,1-.1.4c0,.2-.1.3-.1.4a4.6,4.6,0,0,1-.3.9,2.1,2.1,0,0,1-.3.7l-.7.6a3.3,3.3,0,0,1-1.5.4,2.5,2.5,0,0,1-1.3-.3,1.1,1.1,0,0,1-.6-1v-.4a4.3,4.3,0,0,0,.1-.5,5.1,5.1,0,0,0,.2-.9c.2-.5.2-.8.3-1a.8.8,0,0,1,.1-.4.6.6,0,0,1,.1-.4v-.4h1.3l-.2.4c-.2.7-.3,1.3-.4,1.8s-.1.2-.2.4a1.3,1.3,0,0,1-.1.6v.9c0,.1.1.2.2.3a.8.8,0,0,0,.7.3h.7l.5-.3c.1-.2.3-.3.4-.6a5.9,5.9,0,0,0,.5-1.5c.3-1.1.4-1.8.5-2.3h.8l-.4,1.1" transform="translate(-1522.9 497.2)"/>
  <path d="M1535.5-490.3h-.7a22.8,22.8,0,0,0,1-3.6l.3-1.2c0-.2.1-.3.1-.4h.7a9,9,0,0,1,.5.9l.7.9.7,1a3.5,3.5,0,0,0,.5.8c.1-.4.1-.6.2-.9a3.1,3.1,0,0,1,.2-.8c0-.1,0-.2.1-.2v-.3c0-.1.1-.2.1-.3a.6.6,0,0,1,.1-.4,1.1,1.1,0,0,1,.1-.5v-.2h.7c-.1.1-.1.3-.2.4a9.4,9.4,0,0,1-.3.9,1.8,1.8,0,0,1-.1.6,4.5,4.5,0,0,0-.2.8,4.5,4.5,0,0,0-.2.8c-.1.3-.1.5-.2.8s-.1.6-.2.8h-.1c0-.1-.1-.1-.2-.1h-.3L1537-493l-.6-.8a3.3,3.3,0,0,0-.3,1,.5.5,0,0,1-.1.3c0,.2,0,.3-.1.4l-.4,1.9Z" transform="translate(-1522.9 497.2)"/>
  <path d="M1542.5-490.7h1l.8-.5a4.6,4.6,0,0,0,.7-1.6,1.1,1.1,0,0,0,.1-.5,1.5,1.5,0,0,0-.2-1,.7.7,0,0,0-.5-.4h-1.3c-.3.8-.6,2.1-1,3.7v.2a.4.4,0,0,0-.1.3h.5m.4-4.6h2.1l.5.2.6.5a1.6,1.6,0,0,1,.2,1.2v.5a3.5,3.5,0,0,1-1.4,2l-1,.5-1.1.2h-2.1l.7-2.6c.1-.4.2-.7.2-.8a8.9,8.9,0,0,1,.2-1.1,3.5,3.5,0,0,0,.1-.7h1" transform="translate(-1522.9 497.2)"/>
  <path d="M1548-492.2h1.4a16.4,16.4,0,0,1-.3-1.8l-1.1,1.7Zm-1.9,1.9.9-1.3c.9-1.3,1.7-2.6,2.4-3.8h.6c.2.8.2,1.4.3,1.8l.3,1.6a10.4,10.4,0,0,1,.2,1.5h-1.2c-.1-.7-.1-1.2-.2-1.6h-1.8l-.2.5-.4.5c0,.2-.1.3-.2.5h-.7Z" transform="translate(-1522.9 497.2)"/>
  <path d="M1555.9-491.1l-.3.7a3.7,3.7,0,0,1-1.5.3h-1l-.7-.4c-.2-.2-.4-.3-.5-.5a3.6,3.6,0,0,1-.2-1,4.3,4.3,0,0,1,.1-.5,3.3,3.3,0,0,1,.5-1.2,2.8,2.8,0,0,1,.9-1,4.1,4.1,0,0,1,2.3-.6,2.9,2.9,0,0,1,1.4.3c0,.2-.2.4-.3.8h-.1a1.2,1.2,0,0,0-.5-.5l-.6-.2a1.5,1.5,0,0,0-1.1.4,2,2,0,0,0-.8.8,3.6,3.6,0,0,0-.4,1.1.7.7,0,0,0-.1.5,1.6,1.6,0,0,0,.2,1,1,1,0,0,0,.4.5h1.5l.8-.4Z" transform="translate(-1522.9 497.2)"/>
  <path d="M1558.8-494.3a1.8,1.8,0,0,1-.1.6,3.1,3.1,0,0,0-.2.8,2,2,0,0,0-.2.9l-.2.7a1.1,1.1,0,0,1-.1.5c0,.3-.1.4-.1.6h-1.2c.2-.8.5-1.7.7-2.8s.1-.2.1-.4.1-.2.1-.4.1-.3.1-.5a8.4,8.4,0,0,0,.2-1h1.2l-.3,1" transform="translate(-1522.9 497.2)"/>
  <path d="M1564.4-496.9v.2h-.2c-.1,0-.1,0-.1.1l-.9.6h-.5l.9-1.1c0-.1,0-.1.1-.2h.6a.1.1,0,0,0,.1.1h0m-1.1,5.5a3.5,3.5,0,0,0,.7-1.5,1.3,1.3,0,0,0,.1-.6,2,2,0,0,0-.2-1.1,1.1,1.1,0,0,0-1-.4l-.9.2-.3.3c-.2.1-.3.2-.3.4a4,4,0,0,0-.7,1.6,1.1,1.1,0,0,0-.1.5,1.5,1.5,0,0,0,.2,1,1.1,1.1,0,0,0,1,.5,1.8,1.8,0,0,0,1.5-.9m.6.6a3.7,3.7,0,0,1-2.3.7l-1.1-.2a1.3,1.3,0,0,1-.7-.5,1.6,1.6,0,0,1-.4-1.3,2,2,0,0,1,.1-.7,3.7,3.7,0,0,1,1.3-2,4.6,4.6,0,0,1,2.3-.6,2.1,2.1,0,0,1,1.6.5,1.3,1.3,0,0,1,.6.9c0,.2.1.4,0,.6v.6l-.3.7a1.8,1.8,0,0,1-.5.7l-.6.6" transform="translate(-1522.9 497.2)"/>
  <path d="M1566.1-490.2h-.6l1-3.6.2-1.2a.5.5,0,0,0,.1-.3h.7l.6.8.6.9.7,1a3.5,3.5,0,0,1,.5.8,3.1,3.1,0,0,0,.2-.8c.1-.3.1-.5.2-.9v-.2a.4.4,0,0,1,.1-.3v-.3c0-.1.1-.2.1-.4a4.3,4.3,0,0,0,.1-.5h.7a.8.8,0,0,0-.1.4,4.6,4.6,0,0,1-.3.9,3.9,3.9,0,0,1-.2.6,4.5,4.5,0,0,1-.2.8,4.5,4.5,0,0,1-.2.8,2.4,2.4,0,0,1-.2.8,1.9,1.9,0,0,1-.2.8h-.6l-1.8-2.8-.6-.8a4.1,4.1,0,0,1-.3,1v.3a.8.8,0,0,0-.1.4,16.4,16.4,0,0,0-.4,1.9Z" transform="translate(-1522.9 497.2)"/>
  <path class="cls-2" d="M1565.6-460.3a.8.8,0,0,0-.9-.7l-.8.2a2.1,2.1,0,0,0-.4.6,1.4,1.4,0,0,0,.2.6l.7.5.8.6a1,1,0,0,1,.4.5v.4c0,.2,0,.3-.1.4a1.8,1.8,0,0,1-.4.9,2.7,2.7,0,0,1-1.2.9l-1.3.2a1.8,1.8,0,0,1-1.3-.4l.5-1.1h.2a.9.9,0,0,0,.3.7c.1.2.4.2.7.2a1.1,1.1,0,0,0,.8-.2c.3-.1.4-.4.5-.7a.8.8,0,0,0-.2-.6l-.9-.6-.3-.3-.3-.2a.9.9,0,0,1-.3-.9v-.4a2.4,2.4,0,0,1,1-1.4l.8-.4h.8a2.1,2.1,0,0,1,1.2.4h.1l-.2.3c0,.1-.1.1-.1.2l-.2.3Z" transform="translate(-1522.9 497.2)"/>
  <path class="cls-2" d="M1567.2-456.5a.7.7,0,0,0,.1.5.2.2,0,0,0,.2.2c.5,0,.8-.3.9-1l.3-.8h-.7l-.3.2a1,1,0,0,0-.5.7m-.3-2.1v-.5a2,2,0,0,1,.8-.4,2,2,0,0,1,1-.2,1.5,1.5,0,0,1,1,.3,1,1,0,0,1,.4.9c-.1.2-.1.4-.2.6a1.8,1.8,0,0,1-.1.5c-.1.2-.1.5-.2.8a1.3,1.3,0,0,0-.1.5c0,.2,0,.4.1.4h.3l-.5.2h-.4l-.5-.2a.8.8,0,0,1-.2-.5,1.8,1.8,0,0,1-.7.5l-.7.2a1.1,1.1,0,0,1-.8-.3.8.8,0,0,1-.2-.6v-.3a1.4,1.4,0,0,1,.8-1l1.2-.4.7-.2c.1-.1.2-.2.2-.3s0-.5-.2-.6a.5.5,0,0,0-.4-.2,2.1,2.1,0,0,0-1.1.4h-.2Z" transform="translate(-1522.9 497.2)"/>
  <path class="cls-2" d="M1571.6-459.6h1.2l-.2.6a2.5,2.5,0,0,1,1.6-.7,1,1,0,0,1,1,.5.7.7,0,0,1,.1.5,2.8,2.8,0,0,1-.1.8,4.3,4.3,0,0,0-.1.5c-.1.3-.1.5-.2.6a.8.8,0,0,1-.1.4c0,.2-.1.4-.1.6a1.1,1.1,0,0,0-.1.5h-1.4a.3.3,0,0,0,.1-.2.4.4,0,0,1,.1-.3l.3-1a.8.8,0,0,1,.1-.4.4.4,0,0,1,.1-.3c0-.3.1-.5.1-.7s-.2-.8-.6-.8a.8.8,0,0,0-.7.5,3.4,3.4,0,0,0-.4,1.2,8.1,8.1,0,0,0-.3,1.1c-.1.5-.1.8-.2.9h-1.3c0-.1.1-.1.1-.2s0-.2.1-.3.1-.4.1-.6.1-.4.2-.5a3.6,3.6,0,0,1,.2-1v-.2a.3.3,0,0,0,.1-.2c0-.2.1-.3.1-.5s.1-.4.1-.6Z" transform="translate(-1522.9 497.2)"/>
  <path class="cls-2" d="M1578.2-454.3a1.4,1.4,0,0,0,.9-.8c.2-.6.3-1.1.4-1.5a3.7,3.7,0,0,1,.2-.9l.2-.7c0-.2.1-.4.1-.6a2.5,2.5,0,0,0,.2-.7c0-.1.1-.2.1-.4a1,1,0,0,1,.1-.4c0-.2.1-.4.1-.6s.1-.4.1-.6h1.5a1.3,1.3,0,0,1-.1.5,2.5,2.5,0,0,0-.2.7l-.3,1.1h0a.1.1,0,0,0-.1.1h0l-.3,1.1a3,3,0,0,1-.2,1,5.3,5.3,0,0,1-.3,1.1c0,.3-.2.5-.4.8a3,3,0,0,1-2,1Z" transform="translate(-1522.9 497.2)"/>
  <path class="cls-2" d="M1584.8-456a2.1,2.1,0,0,1-.8.6l-.7.2a1.1,1.1,0,0,1-1.1-.6.7.7,0,0,1-.1-.5,5.1,5.1,0,0,1,.2-.9c.1-.3.2-.9.5-1.9v-.3a.3.3,0,0,0,.1-.2h1.3l-.7,2.4a.7.7,0,0,1-.1.5c0,.1,0,.2.1.2s.2.5.5.5a.9.9,0,0,0,.8-.4,8.3,8.3,0,0,0,.4-1.2,8.9,8.9,0,0,1,.2-1.1c.1-.5.2-.8.2-.9h1.3a6.2,6.2,0,0,1-.3,1c0,.3-.2.8-.3,1.4a.9.9,0,0,0-.1.5,10.3,10.3,0,0,0-.3,1.2v.2h-1.3Z" transform="translate(-1522.9 497.2)"/>
  <path class="cls-2" d="M1588.3-456.5v.5c.1.1.1.2.3.2s.7-.3.9-1,.1-.5.2-.8h-.7l-.3.2c-.2.1-.3.4-.4.7m-.4-2.1v-.5l.9-.4.9-.2a1.8,1.8,0,0,1,1.1.3.9.9,0,0,1,.3.9c0,.2-.1.4-.1.6a1.2,1.2,0,0,0-.1.5l-.3.8c0,.3,0,.4-.1.5s.1.4.2.4h.2c0,.1-.2.1-.5.2h-.4l-.5-.2a.8.8,0,0,1-.2-.5l-.6.5-.7.2a1.5,1.5,0,0,1-.8-.2.9.9,0,0,1-.3-.7.4.4,0,0,1,.1-.3,1.4,1.4,0,0,1,.7-1l1.3-.3.7-.3.2-.3a1.1,1.1,0,0,0-.2-.6l-.5-.2a2.5,2.5,0,0,0-1.1.4h-.2Z" transform="translate(-1522.9 497.2)"/>
  <path class="cls-2" d="M1592.6-459.6h1.3l-.2.6a2.1,2.1,0,0,1,1.5-.7,1.4,1.4,0,0,1,1.1.5c.1.1.1.3.1.6s-.1.3-.2.7a1.8,1.8,0,0,1-.1.6,1.1,1.1,0,0,0-.1.5.6.6,0,0,0-.1.4c-.1.2-.1.4-.2.6a4.3,4.3,0,0,1-.1.5h-1.3v-.2c.1-.1.1-.1.1-.3l.3-1c0-.1.1-.2.1-.4s.1-.2.1-.3a2,2,0,0,0,.1-.7c.1-.5-.1-.7-.5-.7a.8.8,0,0,0-.8.4,8.3,8.3,0,0,0-.4,1.2,6.5,6.5,0,0,1-.2,1.1l-.2.9h-1.3v-.2a.4.4,0,0,0,.1-.3c.1-.2.1-.4.2-.6a4.3,4.3,0,0,1,.1-.5,3.6,3.6,0,0,0,.2-1c.1-.1.1-.1.1-.2v-.2a.9.9,0,0,0,.1-.5c.1-.2.1-.4.2-.6Z" transform="translate(-1522.9 497.2)"/>
  <path class="cls-2" d="M1601.5-457.4a1.5,1.5,0,0,0-.1.7c-.1.6.1.9.5.9a1,1,0,0,0,.8-.5,6.1,6.1,0,0,0,.5-1.2,5.6,5.6,0,0,1,.1-.7c0-.6-.2-.9-.5-.9a1.1,1.1,0,0,0-.9.5,4.2,4.2,0,0,0-.4,1.2m2.8-4.7h1.2a5.1,5.1,0,0,1-.2.9c-.2.8-.4,1.4-.4,1.6s-.4,1.5-.7,2.7a9.1,9.1,0,0,0-.3,1.6h-1.3c.1-.1.1-.2.1-.4s.1-.3.2-.4a1.8,1.8,0,0,1-1.5.9c-1,0-1.4-.5-1.4-1.6s.1-.5.1-.7a5.3,5.3,0,0,1,.8-1.5l.7-.5a1.3,1.3,0,0,1,.8-.2c.6,0,1,.2,1.1.6v-.3c0-.2.1-.3.1-.4a4.3,4.3,0,0,0,.1-.5,4.3,4.3,0,0,0,.1-.5l.3-1.3Z" transform="translate(-1522.9 497.2)"/>
  <path class="cls-2" d="M1608.1-457.9h0a1.3,1.3,0,0,0,.1-.5c0-.5-.1-.7-.4-.7s-.8.4-1.1,1.4Zm-1.5.4a1.5,1.5,0,0,1-.1.6,1.1,1.1,0,0,0,.1.5v.3a1.1,1.1,0,0,0,.8.3,1.5,1.5,0,0,0,1.1-.4h.1l-.3.5a2.3,2.3,0,0,1-1.4.4h-.9a1.3,1.3,0,0,1-.7-.6,3,3,0,0,1-.2-1c0-.2.1-.4.1-.6a4.3,4.3,0,0,1,.5-1.2l.9-.8,1.2-.2a1.6,1.6,0,0,1,1.2.4,1.5,1.5,0,0,1,.3,1,3.7,3.7,0,0,1-.2.9Z" transform="translate(-1522.9 497.2)"/>
  <path class="cls-2" d="M1615.1-455.8l1.1-.2a2.7,2.7,0,0,0,1-.6,5.3,5.3,0,0,0,.9-2,1.1,1.1,0,0,0,.1-.5,2.2,2.2,0,0,0-.2-1.2,1.2,1.2,0,0,0-.7-.5h-1.6c-.3,1-.6,2.5-1.1,4.5v.6h.6m.4-5.6h2.6l.5.2a2.2,2.2,0,0,1,.7.6,2.3,2.3,0,0,1,.4,1.4c0,.3-.1.5-.1.7a4.1,4.1,0,0,1-1.7,2.4l-1.2.6-1.3.2h-2.5c.4-1.2.6-2.3.8-3.1a4.1,4.1,0,0,1,.3-1c0-.2.1-.6.2-1.3s.1-.3.2-.8h1.1" transform="translate(-1522.9 497.2)"/>
  <path class="cls-2" d="M1622.2-462a.5.5,0,0,1,.4.2.8.8,0,0,1,.2.5,1,1,0,0,1-.4.5.6.6,0,0,1-.5.2h-.4a1.1,1.1,0,0,1-.2-.6l.4-.5.5-.2m-2.1,6.1a2.9,2.9,0,0,1,.2-.9c.1-.2.1-.4.2-.6a1.4,1.4,0,0,1,.2-.7,9,9,0,0,1,.3-1.5h1.3l-.3,1.2c-.2.5-.3,1.1-.5,1.7a7.8,7.8,0,0,0-.2,1.4h-1.4Z" transform="translate(-1522.9 497.2)"/>
  <path class="cls-2" d="M1624.3-458.1l-.3.7c0,.3-.1.6-.1.9s.2.9.6.9.7-.3,1-.9a8.3,8.3,0,0,0,.4-1.2v-.4a.4.4,0,0,0,.1-.3q0-.9-.6-.9a.9.9,0,0,0-.7.4,2,2,0,0,0-.4.8m-1.6.8a3.2,3.2,0,0,1,1-1.7l.8-.5a2,2,0,0,1,1-.2h.9l.6.5a2,2,0,0,1,.3,1.1c0,.2-.1.3-.1.5a3.7,3.7,0,0,1-1,1.7,2.8,2.8,0,0,1-1.8.6,1.6,1.6,0,0,1-1-.2.9.9,0,0,1-.6-.6c-.2-.2-.2-.5-.2-.9s.1-.3.1-.4" transform="translate(-1522.9 497.2)"/>
  <path class="cls-2" d="M1627.9-456.4a.8.8,0,0,0,.9.7h.5a.5.5,0,0,0,.3-.4v-.3l-.2-.2h-.6c0-.1,0-.1-.1-.1h-.3c-.1,0-.2-.2-.3-.3a1.1,1.1,0,0,1-.1-.5v-.3a1.6,1.6,0,0,1,.4-.7,1.8,1.8,0,0,1,.7-.5l.8-.2a1.6,1.6,0,0,1,1.2.4,3,3,0,0,1-.4.8h-.2a.8.8,0,0,0-.2-.5c-.1-.2-.3-.2-.5-.2h-.5c-.2.1-.2.2-.3.4s0,.3.1.3l.5.3c.4.2.7.3.8.5a.8.8,0,0,1,.3.7v.3a1.6,1.6,0,0,1-.9,1.1,2.1,2.1,0,0,1-1.2.3,1.5,1.5,0,0,1-1.1-.4,3.4,3.4,0,0,1,.3-.8Z" transform="translate(-1522.9 497.2)"/>
  <path class="cls-2" d="M1523.4-457c-.2,0-.4-.3-.4-.5a.5.5,0,0,1,.4-.5h34.9a.5.5,0,0,1,.5.5.5.5,0,0,1-.5.5Z" transform="translate(-1522.9 497.2)"/>
</svg>
